ScecneKey,IMG,TEXT
Key,Data,Data
Int32,String(32),String(32)
OP1,Opening_1,9001
OP2,Opening_2,9002
OP3,Opening_3,9003
OP4,Opening_4,9004
OP5,Opening_5,9005
OP6,Opening_6,9006
OP7,Opening_7,9007
4R,4R_1,9101
RealED1,RealEnding_1,9201
RealED2,RealEnding_2,9202
RealED3,RealEnding_3,9203
RealED4,RealEnding_4,9207
ED1,ED_1,9301
