%YAML 1.1
%TAG !u! tag:unity3d.com,2011:
--- !u!114 &-2672991831170439236
MonoBehaviour:
  m_ObjectHideFlags: 11
  m_CorrespondingSourceObject: {fileID: 0}
  m_PrefabInstance: {fileID: 0}
  m_PrefabAsset: {fileID: 0}
  m_GameObject: {fileID: 0}
  m_Enabled: 1
  m_EditorHideFlags: 0
  m_Script: {fileID: 11500000, guid: d0353a89b1f911e48b9e16bdc9f2e058, type: 3}
  m_Name: 
  m_EditorClassIdentifier: 
  version: 5
--- !u!21 &2100000
Material:
  serializedVersion: 6
  m_ObjectHideFlags: 0
  m_CorrespondingSourceObject: {fileID: 0}
  m_PrefabInstance: {fileID: 0}
  m_PrefabAsset: {fileID: 0}
  m_Name: XM_water
  m_Shader: {fileID: -6465566751694194690, guid: 584e4efbdff066940bb2a37d6ff60081,
    type: 3}
  m_ShaderKeywords: 
  m_LightmapFlags: 4
  m_EnableInstancingVariants: 0
  m_DoubleSidedGI: 0
  m_CustomRenderQueue: 2999
  stringTagMap: {}
  disabledShaderPasses: []
  m_SavedProperties:
    serializedVersion: 3
    m_TexEnvs:
    - _BaseMap:
        m_Texture: {fileID: 0}
        m_Scale: {x: 1, y: 1}
        m_Offset: {x: 0, y: 0}
    - _BumpMap:
        m_Texture: {fileID: 0}
        m_Scale: {x: 1, y: 1}
        m_Offset: {x: 0, y: 0}
    - _DetailAlbedoMap:
        m_Texture: {fileID: 0}
        m_Scale: {x: 1, y: 1}
        m_Offset: {x: 0, y: 0}
    - _DetailMask:
        m_Texture: {fileID: 0}
        m_Scale: {x: 1, y: 1}
        m_Offset: {x: 0, y: 0}
    - _DetailNormalMap:
        m_Texture: {fileID: 0}
        m_Scale: {x: 1, y: 1}
        m_Offset: {x: 0, y: 0}
    - _EmissionMap:
        m_Texture: {fileID: 0}
        m_Scale: {x: 1, y: 1}
        m_Offset: {x: 0, y: 0}
    - _MainTex:
        m_Texture: {fileID: 0}
        m_Scale: {x: 1, y: 1}
        m_Offset: {x: 0, y: 0}
    - _MetallicGlossMap:
        m_Texture: {fileID: 0}
        m_Scale: {x: 1, y: 1}
        m_Offset: {x: 0, y: 0}
    - _OcclusionMap:
        m_Texture: {fileID: 0}
        m_Scale: {x: 1, y: 1}
        m_Offset: {x: 0, y: 0}
    - _ParallaxMap:
        m_Texture: {fileID: 0}
        m_Scale: {x: 1, y: 1}
        m_Offset: {x: 0, y: 0}
    - _PlusTex_2D:
        m_Texture: {fileID: 0}
        m_Scale: {x: 1, y: 1}
        m_Offset: {x: 0, y: 0}
    - _SpecGlossMap:
        m_Texture: {fileID: 0}
        m_Scale: {x: 1, y: 1}
        m_Offset: {x: 0, y: 0}
    - _Texture2D:
        m_Texture: {fileID: 2800000, guid: f7ad0daab81f94e4c8016f5737e73d11, type: 3}
        m_Scale: {x: 1, y: 1}
        m_Offset: {x: 0, y: 0}
    - unity_Lightmaps:
        m_Texture: {fileID: 0}
        m_Scale: {x: 1, y: 1}
        m_Offset: {x: 0, y: 0}
    - unity_LightmapsInd:
        m_Texture: {fileID: 0}
        m_Scale: {x: 1, y: 1}
        m_Offset: {x: 0, y: 0}
    - unity_ShadowMasks:
        m_Texture: {fileID: 0}
        m_Scale: {x: 1, y: 1}
        m_Offset: {x: 0, y: 0}
    m_Ints: []
    m_Floats:
    - _1_WaveSpeed: 0
    - _1_Wavehight: 0
    - _2WaveAmplitude: 0.02
    - _2_WaveSpeed: 0
    - _2_Wavehight: 0
    - _Alpha: 0.45
    - _AlphaClip: 0
    - _Blend: 0
    - _BumpScale: 1
    - _CastShadows: 1
    - _ClearCoatMask: 0
    - _ClearCoatSmoothness: 0
    - _Cull: 2
    - _Cutoff: 0.5
    - _DetailAlbedoMapScale: 1
    - _DetailNormalMapScale: 1
    - _Distance: 0
    - _DstBlend: 0
    - _EnvironmentReflections: 1
    - _FoamAmount: 0.1
    - _FoamCuttoff: 1
    - _FoamScale: 150
    - _FoamSpeed: 2
    - _GlossMapScale: 0
    - _Glossiness: 0
    - _GlossyReflections: 0
    - _Metallic: 0
    - _OcclusionStrength: 1
    - _PLUSTEX: 0
    - _Parallax: 0.005
    - _PlusTex_speed: 1
    - _PlusTex_speed_1: 1
    - _QueueControl: 0
    - _QueueOffset: -1
    - _ReceiveShadows: 1
    - _RefractionSpeed: 0.06
    - _RefractionStrength: 0.03
    - _Smoothness: 0.5
    - _SmoothnessTextureChannel: 0
    - _SpecularHighlights: 1
    - _SrcBlend: 1
    - _Surface: 0
    - _WaveAmplitude: 0.03
    - _WorkflowMode: 1
    - _ZTest: 4
    - _ZWrite: 1
    - _ZWriteControl: 0
    - _hightFrequency: 0.2
    - _metal: 0
    - _normalStrength: 0.5
    - _wavespeed: 2.5
    m_Colors:
    - _BaseColor: {r: 1, g: 1, b: 1, a: 1}
    - _Color: {r: 1, g: 1, b: 1, a: 1}
    - _Deepcolor: {r: 1, g: 0.73324853, b: 0, a: 1}
    - _EmissionColor: {r: 0, g: 0, b: 0, a: 1}
    - _FoamColor: {r: 1, g: 0.98186, b: 0.9198113, a: 1}
    - _Lawcolor: {r: 1, g: 0.83172375, b: 0.061320715, a: 0.31764707}
    - _PlusTex_2D_UV: {r: 10, g: 10, b: 0, a: 0}
    - _PlusTex_2D_UV_1: {r: 10, g: 10, b: 0, a: 0}
    - _PlusTex_Color: {r: 0.9465066, g: 1, b: 0.6650944, a: 0}
    - _RefractionScale: {r: 1, g: 1, b: 0, a: 0}
    - _SpecColor: {r: 0.19999996, g: 0.19999996, b: 0.19999996, a: 1}
  m_BuildTextureStacks: []
