%YAML 1.1
%TAG !u! tag:unity3d.com,2011:
--- !u!114 &11400000
MonoBehaviour:
  m_ObjectHideFlags: 0
  m_CorrespondingSourceObject: {fileID: 0}
  m_PrefabInstance: {fileID: 0}
  m_PrefabAsset: {fileID: 0}
  m_GameObject: {fileID: 0}
  m_Enabled: 1
  m_EditorHideFlags: 0
  m_Script: {fileID: 11500000, guid: 5721a5c0d56887f45a30f5b8a6053a04, type: 3}
  m_Name: F105A042-69BA-4D25-9850-F7CD69D05B92
  m_EditorClassIdentifier: 
  objectName: SFX_Volume
  id: 1564184899
  guid: F105A042-69BA-4D25-9850-F7CD69D05B92
