%YAML 1.1
%TAG !u! tag:unity3d.com,2011:
--- !u!21 &2100000
Material:
  serializedVersion: 6
  m_ObjectHideFlags: 0
  m_CorrespondingSourceObject: {fileID: 0}
  m_PrefabInstance: {fileID: 0}
  m_PrefabAsset: {fileID: 0}
  m_Name: Ani_X-mas_Material
  m_Shader: {fileID: 4800000, guid: b77e51f117177954ea863bdb422344fb, type: 3}
  m_ShaderKeywords: _STRAIGHT_ALPHA_INPUT
  m_LightmapFlags: 4
  m_EnableInstancingVariants: 0
  m_DoubleSidedGI: 0
  m_CustomRenderQueue: -1
  stringTagMap:
    AlphaDepth: False
    IGNOREPROJECTOR: true
  disabledShaderPasses: []
  m_SavedProperties:
    serializedVersion: 3
    m_TexEnvs:
    - _BlendTex:
        m_Texture: {fileID: 0}
        m_Scale: {x: 1, y: 1}
        m_Offset: {x: 0, y: 0}
    - _BumpMap:
        m_Texture: {fileID: 0}
        m_Scale: {x: 1, y: 1}
        m_Offset: {x: 0, y: 0}
    - _ColorMap:
        m_Texture: {fileID: 0}
        m_Scale: {x: 1, y: 1}
        m_Offset: {x: 0, y: 0}
    - _DiffuseRamp:
        m_Texture: {fileID: 0}
        m_Scale: {x: 1, y: 1}
        m_Offset: {x: 0, y: 0}
    - _EmissionMap:
        m_Texture: {fileID: 0}
        m_Scale: {x: 1, y: 1}
        m_Offset: {x: 0, y: 0}
    - _MainTex:
        m_Texture: {fileID: 2800000, guid: a5b19a5fc3932c2449bb8bf2e50c7519, type: 3}
        m_Scale: {x: 1, y: 1}
        m_Offset: {x: 0, y: 0}
    - _MetallicGlossMap:
        m_Texture: {fileID: 0}
        m_Scale: {x: 1, y: 1}
        m_Offset: {x: 0, y: 0}
    - unity_Lightmaps:
        m_Texture: {fileID: 0}
        m_Scale: {x: 1, y: 1}
        m_Offset: {x: 0, y: 0}
    - unity_LightmapsInd:
        m_Texture: {fileID: 0}
        m_Scale: {x: 1, y: 1}
        m_Offset: {x: 0, y: 0}
    - unity_ShadowMasks:
        m_Texture: {fileID: 0}
        m_Scale: {x: 1, y: 1}
        m_Offset: {x: 0, y: 0}
    m_Ints: []
    m_Floats:
    - PixelSnap: 0
    - _BlendAmount: 0
    - _Brightness: 1
    - _BumpScale: 1
    - _Cull: 0
    - _CustomRenderQueue: 0
    - _Cutoff: 0.1
    - _DoubleSidedLighting: 0
    - _DstBlend: 10
    - _EmissionPower: 2
    - _GlossMapScale: 1
    - _Glossiness: 0.5
    - _Hue: 0
    - _LightAffectsAdditive: 0
    - _Metallic: 0
    - _OutlineMipLevel: 0
    - _OutlineReferenceTexWidth: 1024
    - _OutlineSmoothness: 1
    - _OutlineWidth: 0.37
    - _QueueControl: 0
    - _QueueOffset: 0
    - _ReceiveShadows: 0
    - _RenderQueue: 0
    - _RimPower: 2
    - _Saturation: 1
    - _ShadowAlphaCutoff: 0.1
    - _SrcBlend: 1
    - _StencilComp: 8
    - _StencilRef: 1
    - _StraightAlphaInput: 1
    - _ThresholdEnd: 0.25
    - _Use8Neighbourhood: 1
    m_Colors:
    - _BaseColor: {r: 0, g: 0, b: 0, a: 1}
    - _Color: {r: 0.57758063, g: 0.57758063, b: 0.57758063, a: 0}
    - _EmissionColor: {r: 0, g: 0, b: 0, a: 0}
    - _FixedNormal: {r: 0, g: 0, b: 1, a: 1}
    - _OutlineColor: {r: 1, g: 1, b: 0, a: 1}
    - _OverlayColor: {r: 0, g: 0, b: 0, a: 0}
    - _RimColor: {r: 1, g: 1, b: 1, a: 1}
  m_BuildTextureStacks: []
