{
"skeleton": { "hash": "b04ebXFPYrU", "spine": "4.0.64" },
"bones": [
	{ "name": "root" },
	{ "name": "All", "parent": "root", "y": 730 },
	{ "name": "RedHood_All", "parent": "All", "y": -730 },
	{ "name": "Pelvis", "parent": "RedHood_All", "rotation": -90, "y": 720.2 },
	{ "name": "Body", "parent": "Pelvis", "length": 172.16, "rotation": -179.51, "x": -76.15, "y": 20.4 },
	{ "name": "Shoulder_center", "parent": "Body", "x": 172.16 },
	{ "name": "Shoulder_R", "parent": "Shoulder_center", "length": 76.02, "rotation": -104.01, "x": 0.29, "y": 1.18 },
	{ "name": "Arm_R", "parent": "Shoulder_R", "length": 171.87, "rotation": -68.27, "x": 77.38, "y": 0.45 },
	{ "name": "Arm_R2", "parent": "Arm_R", "length": 136.37, "rotation": 0.19, "x": 172.11, "y": -0.81 },
	{ "name": "Shoulder_R_ik", "parent": "Shoulder_center", "rotation": -104.01, "x": -18.12, "y": -72.58 },
	{ "name": "Hand_R", "parent": "Arm_R2", "x": 127.76, "y": 4.44 },
	{ "name": "Cape_R", "parent": "Arm_R", "length": 86.57, "rotation": 22.76, "x": -18.26, "y": 11.66 },
	{ "name": "Cape_R_Middle", "parent": "Cape_R", "rotation": -30.96, "x": 252.68, "y": 13.36 },
	{ "name": "Cape_R_Up", "parent": "Cape_R", "rotation": -30.96, "x": 106.18, "y": 6.75 },
	{ "name": "Cape_R_Down", "parent": "Cape_R", "rotation": -30.96, "x": 239.45, "y": -106.62 },
	{ "name": "Hand_R2", "parent": "Hand_R", "length": 37.43, "rotation": 2.71, "x": 48.31, "y": -0.02 },
	{ "name": "basket_All", "parent": "All", "x": 212.45, "y": -425.68 },
	{ "name": "basket_haed", "parent": "basket_All", "rotation": -81.08, "x": -63.71, "y": 293.44 },
	{ "name": "basket_Up", "parent": "basket_haed", "x": 180.28, "y": -3.33 },
	{ "name": "basket_Down", "parent": "basket_Up", "x": 110.32, "y": -0.28 },
	{ "name": "Shoulder_control", "parent": "Shoulder_center", "x": -10.55, "y": -229.07 }
],
"slots": [
	{ "name": "root", "bone": "root" },
	{ "name": "basket(1)", "bone": "root" },
	{ "name": "hand(R)", "bone": "root" },
	{ "name": "arm(R)_bot", "bone": "root" }
],
"ik": [
	{
		"name": "shoulder_R",
		"order": 1,
		"bones": [ "Shoulder_R" ],
		"target": "Shoulder_R_ik",
		"compress": true,
		"stretch": true
	}
],
"transform": [
	{
		"name": "Hand_basket",
		"order": 2,
		"bones": [ "basket_haed" ],
		"target": "Hand_R2",
		"x": 9.55
	},
	{
		"name": "Shoulder_R_control",
		"bones": [ "Shoulder_R_ik" ],
		"target": "Shoulder_control",
		"rotation": -104.01,
		"x": -7.56,
		"y": 156.49,
		"mixRotate": 0.5,
		"mixX": 0.5,
		"mixScaleX": 0.5,
		"mixShearY": 0.5
	}
],
"skins": [
	{
		"name": "default",
		"attachments": {
			"arm(R)_bot": {
				"arm(R)_bot": {
					"type": "mesh",
					"uvs": [ 0.04756, 0.03896, 0.28292, 0.01438, 0.54672, 0.01959, 0.57674, 0.07993, 0.63676, 0.12016, 0.6415, 0.1723, 0.69667, 0.28041, 0.73528, 0.35606, 0.86277, 0.55403, 1, 0.71548, 1, 0.77925, 0.87469, 0.85279, 1, 0.92069, 0.94579, 0.94584, 0.82637, 0.95177, 0.73994, 0.9877, 0.62963, 0.9759, 0.5341, 1, 0.40901, 0.97858, 0.27254, 0.98877, 0.13721, 0.96088, 0.22364, 0.90564, 0, 0.7907, 0.01892, 0.60926, 0.04204, 0.39425, 0.04814, 0.30556, 0.05427, 0.21633, 0.04025, 0.17004, 0.06114, 0.11561, 0.31175, 0.09847, 0.33763, 0.18169, 0.35881, 0.24937, 0.40587, 0.40693, 0.48788, 0.61167, 0.53064, 0.7831, 0.57952, 0.85944, 0.12248, 0.18365, 0.12875, 0.25352, 0.12642, 0.4018, 0.11477, 0.61487, 0.1008, 0.77852, 0.91361, 0.7258, 0.79017, 0.56654, 0.65742, 0.36665, 0.59483, 0.22791, 0.55368, 0.13943, 0.21808, 0.18638, 0.13981, 0.11597, 0.24273, 0.11597, 0.40072, 0.1023, 0.49639, 0.09, 0.4761, 0.16451, 0.22823, 0.25405, 0.49494, 0.23902, 0.12175, 0.32997, 0.25017, 0.3357, 0.40116, 0.3357, 0.53652, 0.32342, 0.6285, 0.30378 ],
					"triangles": [ 0, 47, 28, 58, 44, 6, 53, 51, 44, 44, 5, 6, 30, 49, 51, 2, 49, 1, 50, 2, 3, 49, 29, 1, 48, 0, 1, 2, 50, 49, 1, 29, 48, 48, 47, 0, 45, 50, 3, 45, 3, 4, 51, 49, 50, 45, 4, 5, 30, 29, 49, 51, 50, 45, 5, 51, 45, 44, 51, 5, 30, 51, 53, 31, 30, 53, 53, 44, 58, 27, 28, 47, 48, 29, 30, 36, 27, 47, 36, 47, 46, 26, 27, 36, 37, 36, 46, 26, 36, 37, 52, 46, 30, 37, 46, 52, 25, 26, 37, 57, 53, 58, 54, 25, 37, 54, 37, 52, 55, 52, 31, 54, 52, 55, 56, 31, 53, 56, 53, 57, 55, 31, 56, 58, 6, 7, 43, 58, 7, 57, 58, 43, 24, 25, 54, 38, 54, 55, 24, 54, 38, 32, 56, 57, 32, 57, 43, 8, 43, 7, 42, 43, 8, 32, 43, 42, 23, 24, 38, 33, 32, 42, 39, 23, 38, 55, 56, 32, 38, 55, 32, 39, 38, 32, 39, 32, 33, 41, 8, 9, 42, 8, 41, 40, 23, 39, 41, 9, 10, 41, 34, 33, 41, 33, 42, 22, 23, 40, 11, 34, 41, 11, 41, 10, 35, 34, 11, 40, 33, 34, 33, 40, 39, 21, 34, 35, 21, 40, 34, 22, 40, 21, 13, 11, 12, 14, 35, 11, 14, 11, 13, 16, 35, 14, 18, 21, 35, 16, 18, 35, 19, 20, 21, 15, 16, 14, 18, 19, 21, 17, 18, 16, 46, 48, 30, 52, 30, 31, 46, 47, 48 ],
					"vertices": [ 1, 7, 149.12, -16.14, 1, 2, 8, -24.47, 4.71, 3.9E-4, 7, 147.62, 3.81, 0.99961, 1, 7, 151.65, 25.35, 1, 2, 8, -9.5, 27.15, 0.00937, 7, 162.52, 26.3, 0.99063, 2, 8, -1.77, 31.04, 0.07024, 7, 170.24, 30.23, 0.92976, 2, 8, 7.37, 30.09, 0.2859, 7, 179.38, 29.31, 0.7141, 2, 8, 26.86, 31.85, 0.42088, 7, 198.86, 31.12, 0.57912, 2, 8, 40.5, 33.08, 0.67848, 7, 212.5, 32.4, 0.32152, 2, 8, 76.51, 38.46, 0.94284, 7, 248.49, 37.9, 0.05716, 1, 8, 106.29, 45.58, 1, 1, 8, 117.39, 43.95, 1, 1, 8, 128.68, 31.77, 1, 1, 8, 142.02, 40.31, 1, 1, 8, 145.74, 35.22, 1, 1, 8, 145.33, 25.26, 1, 1, 8, 150.54, 17.24, 1, 1, 8, 147.15, 8.48, 1, 1, 8, 150.19, 0.02, 1, 1, 8, 144.94, -9.7, 1, 1, 8, 145.06, -21.17, 1, 1, 8, 138.57, -31.56, 1, 1, 8, 130, -23.05, 1, 1, 8, 107.27, -38.46, 1, 1, 8, 75.91, -32.25, 1, 1, 8, 38.76, -24.83, 1, 1, 8, 23.39, -22.05, 1, 2, 8, 7.93, -19.26, 0.90857, 7, 180.09, -20.04, 0.09143, 2, 8, -0.3, -19.22, 0.6689, 7, 171.86, -20.03, 0.3311, 2, 8, -9.53, -16.1, 0.20862, 7, 162.63, -16.95, 0.79138, 2, 8, -9.48, 4.91, 0.34286, 7, 162.61, 4.07, 0.65714, 2, 8, 5.33, 4.9, 0.45332, 7, 177.41, 4.11, 0.54668, 2, 8, 17.37, 4.9, 0.52286, 7, 189.46, 4.15, 0.47714, 2, 8, 45.37, 4.72, 0.94229, 7, 217.46, 4.06, 0.05771, 1, 8, 82.01, 6.2, 1, 1, 8, 112.38, 5.31, 1, 1, 8, 126.26, 7.36, 1, 2, 8, 3.06, -12.81, 0.69507, 7, 175.21, -13.62, 0.30493, 1, 8, 15.3, -14.09, 1, 1, 8, 41.09, -18.09, 1, 1, 8, 78.05, -24.52, 1, 1, 8, 106.38, -29.87, 1, 1, 8, 107.04, 38.22, 1, 2, 8, 77.81, 32.18, 0.96, 7, 249.81, 31.62, 0.04, 2, 8, 41.4, 26.41, 0.75143, 7, 213.42, 25.73, 0.24857, 2, 8, 16.49, 24.83, 0.38595, 7, 188.51, 24.08, 0.61405, 2, 8, 0.58, 23.73, 0.16696, 7, 172.61, 22.92, 0.83304, 1, 8, 4.69, -5.03, 1, 2, 8, -8.51, -9.65, 0.48, 7, 163.62, -10.49, 0.52, 2, 8, -7.27, -1.2, 0.25594, 7, 164.84, -2.04, 0.74406, 2, 8, -7.73, 12.12, 0.3058, 7, 164.33, 11.28, 0.6942, 2, 8, -8.72, 20.29, 0.12115, 7, 163.32, 19.45, 0.87885, 2, 8, 4.01, 16.71, 0.33924, 7, 176.06, 15.91, 0.66076, 2, 8, 16.6, -5.94, 0.75429, 7, 188.73, -6.7, 0.24571, 2, 8, 17.21, 16.35, 0.44856, 7, 189.26, 15.59, 0.55144, 1, 8, 28.53, -16.63, 1, 2, 8, 31.08, -6.23, 0.81902, 7, 203.21, -6.94, 0.18098, 2, 8, 32.91, 6.16, 0.59878, 7, 205, 5.46, 0.40122, 2, 8, 32.41, 17.59, 0.93394, 7, 204.46, 16.89, 0.06606, 2, 8, 30.11, 25.65, 0.52599, 7, 202.13, 24.94, 0.47401 ],
					"hull": 29
				}
			},
			"basket(1)": {
				"basket(1)": {
					"type": "mesh",
					"uvs": [ 0.88518, 0, 0.93074, 1.0E-5, 0.99496, 0.10726, 0.99999, 0.21547, 0.98321, 0.32871, 0.98907, 0.4747, 0.98431, 0.61731, 0.96049, 0.73941, 0.87103, 0.74869, 0.8228, 0.69556, 0.80275, 0.87279, 0.62241, 0.99999, 0.44123, 0.99999, 0.28518, 0.97305, 0.18532, 0.83877, 0.11533, 0.39716, 0.04937, 0.41706, 0, 0.27432, 0, 0.12492, 0.04287, 1.0E-5, 0.1231, 1.1E-4, 0.22891, 0.09334, 0.32287, 0.12625, 0.44001, 0.1384, 0.54298, 0.10849, 0.65383, 0.05901, 0.77357, 0.02663, 0.78784, 0.58324, 0.78985, 0.475, 0.81376, 0.42504, 0.1664, 0.48394, 0.31509, 0.52723, 0.45146, 0.54626, 0.59251, 0.5235, 0.71066, 0.47219, 0.87655, 0.59162, 0.90437, 0.4555, 0.84888, 0.3498, 0.91258, 0.34375, 0.90929, 0.39769, 0.06, 0.21228, 0.17647, 0.33679, 0.31641, 0.38045, 0.44629, 0.395, 0.57282, 0.34973, 0.69264, 0.2996, 0.81498, 0.25271, 0.92308, 0.23007, 0.19549, 0.70163, 0.28772, 0.76492, 0.4327, 0.76859, 0.54822, 0.76584, 0.68429, 0.73094, 0.7802, 0.67806 ],
					"triangles": [ 29, 46, 37, 38, 37, 47, 47, 37, 46, 4, 47, 3, 45, 26, 46, 45, 25, 26, 46, 0, 47, 46, 26, 0, 47, 2, 3, 47, 1, 2, 47, 0, 1, 8, 35, 7, 8, 9, 35, 7, 35, 6, 52, 33, 34, 53, 27, 9, 9, 27, 35, 27, 52, 34, 35, 36, 6, 6, 36, 5, 27, 28, 35, 28, 29, 35, 35, 29, 36, 27, 34, 28, 33, 44, 34, 29, 28, 45, 36, 39, 5, 5, 39, 4, 39, 38, 4, 44, 45, 34, 28, 34, 45, 29, 37, 36, 36, 37, 39, 29, 45, 46, 39, 37, 38, 44, 25, 45, 44, 24, 25, 38, 47, 4, 12, 51, 11, 11, 52, 10, 11, 51, 52, 12, 13, 50, 13, 49, 50, 12, 50, 51, 13, 14, 49, 52, 53, 10, 10, 53, 9, 14, 15, 48, 14, 48, 49, 49, 31, 50, 50, 32, 51, 51, 33, 52, 49, 48, 31, 50, 31, 32, 51, 32, 33, 53, 52, 27, 31, 43, 32, 32, 44, 33, 32, 43, 44, 44, 43, 23, 48, 30, 31, 31, 42, 43, 31, 30, 42, 42, 23, 43, 42, 22, 23, 42, 21, 22, 48, 15, 30, 30, 41, 42, 30, 15, 41, 16, 40, 15, 16, 17, 40, 15, 40, 41, 41, 21, 42, 41, 40, 21, 21, 40, 20, 17, 18, 40, 18, 19, 40, 40, 19, 20, 44, 23, 24 ],
					"vertices": [ 1, 19, -107.65, 99.53, 1, 1, 19, -107.65, 110.78, 1, 1, 19, -93.92, 126.65, 1, 1, 19, -80.07, 127.89, 1, 1, 19, -65.58, 123.74, 1, 1, 19, -46.89, 125.19, 1, 1, 19, -28.64, 124.02, 1, 1, 19, -13.01, 118.13, 1, 1, 19, -11.82, 96.04, 1, 1, 19, -18.62, 84.12, 1, 1, 19, 4.07, 79.17, 1, 1, 19, 20.35, 34.63, 1, 1, 19, 20.35, -10.13, 1, 1, 19, 16.9, -48.67, 1, 1, 19, -0.29, -73.34, 1, 1, 19, -56.81, -90.62, 1, 1, 19, -54.27, -106.91, 1, 1, 19, -72.54, -119.11, 1, 1, 19, -91.66, -119.11, 1, 1, 19, -107.65, -108.52, 1, 1, 19, -107.64, -88.7, 1, 1, 19, -95.7, -62.57, 1, 1, 19, -91.49, -39.36, 1, 1, 19, -89.93, -10.43, 1, 1, 19, -93.76, 15.01, 1, 1, 19, -100.1, 42.39, 1, 1, 19, -104.24, 71.96, 1, 1, 19, -33, 75.49, 1, 1, 19, -46.85, 75.98, 1, 1, 19, -53.25, 81.89, 1, 1, 19, -45.71, -78.01, 1, 1, 19, -40.17, -41.28, 1, 1, 19, -37.73, -7.6, 1, 1, 19, -40.64, 27.24, 1, 1, 19, -47.21, 56.42, 1, 1, 19, -31.92, 97.4, 1, 1, 19, -49.35, 104.27, 1, 1, 19, -62.88, 90.56, 1, 1, 19, -63.65, 106.3, 1, 1, 19, -56.75, 105.48, 1, 1, 19, -80.48, -104.29, 1, 1, 19, -64.54, -75.52, 1, 1, 19, -58.95, -40.96, 1, 1, 19, -57.09, -8.88, 1, 1, 19, -62.89, 22.38, 1, 1, 19, -69.3, 51.97, 1, 1, 19, -75.3, 82.19, 1, 1, 19, -78.2, 108.89, 1, 1, 19, -17.84, -70.82, 1, 1, 19, -9.74, -48.04, 1, 1, 19, -9.27, -12.23, 1, 1, 19, -9.62, 16.3, 1, 1, 19, -14.09, 49.91, 1, 1, 19, -20.86, 73.6, 1 ],
					"hull": 27
				}
			},
			"hand(R)": {
				"hand(R)_1": {
					"type": "mesh",
					"uvs": [ 0.13705, 0.06329, 0.37314, 0, 0.74372, 0.00251, 0.76464, 0.16339, 0.87223, 0.29209, 0.98579, 0.56559, 0.99476, 0.78903, 0.92004, 0.83372, 0.80349, 0.81227, 0.69889, 0.87483, 0.45682, 0.98208, 0.34678, 1, 0.25539, 0.98814, 0.25996, 0.89084, 0.31479, 0.81213, 0.31417, 0.72243, 0.29832, 0.63202, 0.24103, 0.71878, 0.13986, 0.78367, 0.01675, 0.76982, 0, 0.70202, 0.05698, 0.62036, 0.0597, 0.44153, 0.18044, 0.3205, 0.17707, 0.18171, 0.18047, 0.61851, 0.30272, 0.49999, 0.49887, 0.16138, 0.65368, 0.62266 ],
					"triangles": [ 18, 19, 17, 25, 20, 21, 17, 20, 25, 17, 19, 20, 17, 25, 16, 16, 26, 28, 16, 25, 26, 21, 22, 25, 25, 22, 26, 10, 11, 13, 11, 12, 13, 13, 14, 10, 10, 14, 9, 28, 8, 9, 7, 8, 6, 28, 9, 15, 8, 28, 6, 15, 9, 14, 28, 5, 6, 15, 16, 28, 28, 26, 4, 28, 4, 5, 4, 27, 3, 27, 4, 26, 23, 24, 27, 24, 1, 27, 24, 0, 1, 27, 2, 3, 27, 1, 2, 22, 23, 26, 26, 23, 27 ],
					"vertices": [ 1, 10, -13.03, -23.25, 1, 1, 10, -17.53, -7.31, 1, 1, 10, -13.8, 16.11, 1, 2, 10, 3.42, 14.92, 0.9063, 15, -44.12, 17.05, 0.0937, 2, 10, 18.05, 19.73, 0.5811, 15, -29.28, 21.16, 0.4189, 2, 10, 48.06, 22.65, 0.05045, 15, 0.83, 22.65, 0.94955, 1, 15, 24.4, 18.61, 1, 1, 15, 28.17, 13, 1, 1, 15, 24.49, 6.12, 1, 1, 15, 29.77, -1.73, 1, 1, 15, 38.04, -19.15, 1, 1, 15, 38.57, -26.43, 1, 1, 15, 36.2, -31.92, 1, 1, 15, 26.04, -29.63, 1, 1, 15, 18.45, -24.57, 1, 1, 15, 9.02, -22.76, 1, 1, 15, -0.66, -21.89, 1, 1, 15, 7.74, -27.27, 1, 1, 15, 13.31, -34.96, 1, 1, 15, 10.33, -42.41, 1, 1, 15, 3.01, -42.07, 1, 1, 15, -4.86, -36.81, 1, 1, 10, 26.28, -34.05, 1, 2, 10, 14.6, -24.52, 0.98044, 15, -34.83, -22.87, 0.01956, 1, 10, -0.12, -22.57, 1, 1, 15, -3.54, -29.01, 1, 2, 10, 34.74, -19.58, 0.20215, 15, -14.47, -18.89, 0.79785, 2, 10, 0.73, -1.87, 0.99606, 15, -47.61, 0.4, 0.00394, 2, 10, 51, 0.73, 2.9E-4, 15, 2.73, 0.62, 0.99971 ],
					"hull": 25
				},
				"hand(R)_2": {
					"type": "mesh",
					"uvs": [ 0.08663, 0.05222, 0.29117, 0, 0.64912, 0, 0.68086, 0.17708, 0.76433, 0.26729, 0.8834, 0.51716, 0.98865, 0.67567, 0.98532, 0.80774, 0.94635, 0.84176, 0.85815, 0.81298, 0.80892, 0.92551, 0.76379, 0.94644, 0.74738, 0.98308, 0.65303, 0.98832, 0.58739, 0.95037, 0.56072, 1, 0.46227, 0.99355, 0.38022, 0.93598, 0.3555, 0.81048, 0.349, 0.77748, 0.33099, 0.68605, 0.28432, 0.56809, 0.22521, 0.65716, 0.09375, 0.72282, 0, 0.70072, 0, 0.63636, 0.05094, 0.51804, 0.05617, 0.49276, 0.07879, 0.38339, 0.14531, 0.27155, 0.41559, 0.12275, 0.13099, 0.57484, 0.26593, 0.42126, 0.46721, 0.78249, 0.63717, 0.75985, 0.74437, 0.73354, 0.87301, 0.64622, 0.44041, 0.58911, 0.56563, 0.56531, 0.65712, 0.53502, 0.74476, 0.50961, 0.57296, 0.83859 ],
					"triangles": [ 22, 23, 25, 23, 24, 25, 25, 31, 22, 22, 31, 21, 25, 26, 31, 32, 21, 31, 31, 26, 27, 31, 27, 32, 27, 28, 32, 15, 16, 14, 16, 17, 14, 12, 13, 11, 11, 13, 14, 17, 41, 14, 14, 41, 11, 11, 41, 10, 41, 18, 33, 41, 17, 18, 10, 41, 9, 9, 41, 34, 9, 34, 35, 8, 9, 7, 41, 33, 34, 7, 9, 6, 18, 19, 33, 36, 6, 9, 36, 9, 35, 37, 34, 33, 33, 19, 20, 33, 20, 37, 37, 38, 34, 34, 38, 35, 38, 39, 35, 36, 39, 40, 36, 35, 39, 20, 21, 37, 36, 5, 6, 36, 40, 5, 38, 37, 32, 37, 21, 32, 38, 32, 39, 40, 39, 4, 5, 40, 4, 4, 39, 32, 32, 3, 4, 32, 30, 3, 32, 29, 30, 30, 0, 1, 30, 29, 0, 30, 2, 3, 30, 1, 2, 28, 29, 32 ],
					"vertices": [ 1, 10, -11.33, -22.92, 1, 1, 10, -15.11, -7.06, 1, 2, 10, -11.25, 19.15, 0.99511, 15, -58.58, 21.96, 0.00489, 2, 10, 9.42, 18.47, 0.77646, 15, -37.97, 20.31, 0.22354, 2, 10, 20.67, 23.06, 0.48318, 15, -26.51, 24.36, 0.51682, 2, 10, 50.63, 27.55, 0.03859, 15, 3.63, 27.43, 0.96141, 2, 10, 69.96, 32.57, 1.4E-4, 15, 23.17, 31.53, 0.99986, 1, 15, 38.16, 28.34, 1, 1, 15, 41.47, 24.75, 1, 1, 15, 36.94, 18.99, 1, 1, 15, 49.05, 12.9, 1, 1, 15, 50.79, 9.15, 1, 1, 15, 54.73, 7.14, 1, 1, 15, 53.98, 0.18, 1, 1, 15, 48.72, -3.74, 1, 1, 15, 53.99, -6.79, 1, 1, 15, 51.85, -13.79, 1, 1, 15, 44.13, -18.47, 1, 1, 15, 29.49, -17.46, 1, 1, 15, 25.65, -17.19, 1, 1, 15, 14.98, -16.46, 1, 1, 15, 0.89, -17.21, 1, 1, 15, 10.19, -23.49, 1, 1, 15, 15.79, -34.51, 1, 1, 15, 11.94, -40.82, 1, 1, 15, 4.61, -39.38, 1, 1, 15, -8.13, -33.04, 1, 1, 15, -10.94, -32.1, 1, 2, 10, 26.59, -29.09, 0.99802, 15, -23.06, -28.01, 0.00198, 2, 10, 14.48, -22.33, 0.9628, 15, -34.85, -20.68, 0.0372, 2, 10, 0.32, -0.03, 0.99847, 15, -47.93, 2.27, 0.00153, 1, 15, -0.53, -28.5, 1, 2, 10, 32.96, -16.04, 0.30076, 15, -16.09, -15.27, 0.69924, 1, 15, 27.9, -8.72, 1, 1, 15, 27.74, 4.13, 1, 1, 15, 26.28, 12.5, 1, 2, 10, 65.33, 24.6, 0.00188, 15, 18.17, 23.79, 0.99812, 1, 15, 5.51, -6.35, 1, 2, 10, 52.73, 3.47, 0.00225, 15, 4.58, 3.28, 0.99775, 2, 10, 50.24, 10.68, 0.02539, 15, 2.44, 10.6, 0.97461, 2, 10, 48.27, 17.52, 0.05199, 15, 0.79, 17.53, 0.94801, 1, 15, 35.79, -2.29, 1 ],
					"hull": 30
				},
				"hand(R)_3": {
					"type": "mesh",
					"uvs": [ 0.1022, 0.10753, 0.14622, 0.31411, 0.06513, 0.44073, 0, 0.73227, 0.04197, 0.78892, 0.23889, 0.77226, 0.25279, 0.84722, 0.23429, 0.96729, 0.38601, 1, 0.49437, 0.95755, 0.59732, 0.9595, 0.68673, 0.91274, 0.76529, 0.97703, 0.87637, 0.98677, 0.92514, 0.90105, 1, 0.70039, 0.9739, 0.6322, 0.91159, 0.56596, 0.83302, 0.33413, 0.74362, 0.19775, 0.6786, 0, 0.36433, 0, 0.46186, 0.17632, 0.59386, 0.54163, 0.42123, 0.75688, 0.59732, 0.70818, 0.72225, 0.67455, 0.83032, 0.63999, 0.87831, 0.73318, 0.79344, 0.55692 ],
					"triangles": [ 2, 5, 3, 24, 5, 2, 4, 3, 5, 6, 5, 24, 10, 9, 24, 8, 6, 24, 8, 7, 6, 24, 9, 8, 18, 23, 22, 29, 23, 18, 29, 18, 17, 27, 29, 17, 27, 17, 16, 23, 29, 27, 26, 23, 27, 25, 23, 26, 28, 27, 16, 28, 16, 15, 26, 27, 28, 25, 24, 23, 14, 28, 15, 11, 25, 26, 11, 26, 28, 12, 11, 28, 10, 24, 25, 25, 11, 10, 14, 12, 28, 13, 12, 14, 18, 22, 19, 23, 24, 2, 22, 21, 20, 0, 21, 22, 22, 20, 19, 1, 0, 22, 1, 22, 23, 2, 1, 23 ],
					"vertices": [ 2, 10, -1.83, -18.71, 0.99991, 15, -50.96, -16.3, 9.0E-5, 2, 10, 16.77, -18.61, 0.91027, 15, -32.38, -17.07, 0.08973, 2, 10, 27.16, -25.39, 0.9419, 15, -22.32, -24.34, 0.0581, 1, 15, 2.34, -33.42, 1, 1, 15, 7.8, -31.76, 1, 1, 15, 8.78, -19.11, 1, 1, 15, 15.49, -19.52, 1, 1, 15, 25.75, -22.74, 1, 1, 15, 30.48, -13.77, 1, 1, 15, 28.11, -6.24, 1, 1, 15, 29.55, 0.2, 1, 1, 15, 26.56, 6.61, 1, 1, 15, 33.15, 10.45, 1, 1, 15, 35.37, 17.25, 1, 1, 15, 28.48, 21.79, 1, 2, 10, 58.76, 30.43, 0.00558, 15, 11.88, 29.93, 0.99442, 2, 10, 52.51, 29.67, 0.01774, 15, 5.6, 29.46, 0.98226, 2, 10, 46.09, 26.58, 0.05719, 15, -0.95, 26.68, 0.94281, 2, 10, 24.95, 24.62, 0.1038, 15, -22.17, 25.72, 0.8962, 2, 10, 12.11, 20.73, 0.3491, 15, -35.18, 22.44, 0.6509, 2, 10, -5.91, 19.18, 0.98106, 15, -53.25, 21.74, 0.01894, 1, 10, -8.85, -0.72, 1, 2, 10, 7.59, 3.17, 0.91833, 15, -40.52, 5.11, 0.08167, 2, 10, 40.98, 6.78, 0.08451, 15, -6.99, 7.14, 0.91549, 1, 15, 9.68, -7.39, 1, 2, 10, 55.68, 4.84, 3.0E-5, 15, 7.6, 4.5, 0.99997, 2, 10, 53.89, 13.18, 0.00782, 15, 6.2, 12.93, 0.99218, 2, 10, 51.85, 20.47, 0.02322, 15, 4.51, 20.3, 0.97678, 2, 10, 60.51, 22.3, 0.00272, 15, 13.24, 21.72, 0.99728, 2, 10, 44.19, 19.22, 0.07655, 15, -3.2, 19.41, 0.92345 ],
					"hull": 22
				}
			},
			"root": {
				"root": {
					"type": "clipping",
					"end": "root",
					"vertexCount": 4,
					"vertices": [ -1473.77, 1621.51, -1474.05, 1.7, 1410.34, 1.58, 1404.97, 1621.5 ]
				}
			}
		}
	}
],
"animations": {
	"RedHood_Death_front": {
		"slots": {
			"arm(R)_bot": {
				"attachment": [
					{ "name": "arm(R)_bot" },
					{ "time": 5.3333, "name": "arm(R)_bot" },
					{ "time": 6.6667, "name": "arm(R)_bot" },
					{ "time": 7.2333, "name": "arm(R)_bot" },
					{ "time": 8.5667, "name": "arm(R)_bot" },
					{ "time": 9.9, "name": "arm(R)_bot" }
				]
			},
			"basket(1)": {
				"rgba": [
					{ "time": 13.6667, "color": "f4f1f3ff" },
					{ "time": 14.3333, "color": "000000ff" },
					{ "time": 16.1667, "color": "3a0029ff" },
					{ "time": 16.6667, "color": "ffffffff" },
					{ "time": 17.5, "color": "c25656ff" }
				],
				"attachment": [
					{ "name": "basket(1)" },
					{ "time": 5.3333, "name": "basket(1)" },
					{ "time": 6.6667, "name": "basket(1)" },
					{ "time": 7.2333, "name": "basket(1)" },
					{ "time": 8.5667, "name": "basket(1)" },
					{ "time": 16.6667, "name": "basket(1)" }
				]
			},
			"hand(R)": {
				"attachment": [
					{ "name": "hand(R)_3" },
					{ "time": 5.3333, "name": "hand(R)_3" },
					{ "time": 6.6667, "name": "hand(R)_3" },
					{ "time": 7.2333, "name": "hand(R)_3" },
					{ "time": 8.5667, "name": "hand(R)_3" },
					{ "time": 9.9, "name": "hand(R)_2" },
					{ "time": 12.6667, "name": "hand(R)_1" }
				]
			},
			"root": {
				"attachment": [
					{ "name": "root" }
				]
			}
		},
		"bones": {
			"root": {
				"translate": [
					{ "time": 20.9667, "curve": "stepped" },
					{ "time": 21.3667 }
				],
				"scale": [
					{ "time": 20.9667, "curve": "stepped" },
					{ "time": 21.3667 }
				]
			},
			"Pelvis": {
				"rotate": [
					{ "curve": "stepped" },
					{ "time": 1.3333, "curve": "stepped" },
					{ "time": 2.6667, "curve": "stepped" },
					{ "time": 4, "curve": "stepped" },
					{ "time": 5.3333, "curve": "stepped" },
					{ "time": 6.6667, "curve": "stepped" },
					{ "time": 7.2333, "curve": "stepped" },
					{ "time": 8.5667, "curve": "stepped" },
					{ "time": 17.6333, "curve": "stepped" },
					{ "time": 19.9667, "curve": "stepped" },
					{ "time": 20.9667, "curve": "stepped" },
					{ "time": 21.3667 }
				],
				"translate": [
					{
						"curve": [ 0.056, 0, 0.278, 0, 0.07, -34.5, 0.26, -31.64 ]
					},
					{
						"time": 0.3333,
						"curve": [ 0.389, 0, 0.444, 0, 0.389, 24.27, 0.444, 68.45 ]
					},
					{
						"time": 0.5,
						"y": 68.45,
						"curve": [ 0.556, 0, 0.611, 0, 0.556, 68.45, 0.612, 29.89 ]
					},
					{
						"time": 0.6667,
						"curve": [ 0.722, 0, 0.944, 0, 0.75, -45.33, 0.921, -33.06 ]
					},
					{
						"time": 1,
						"curve": [ 1.056, 0, 1.111, 0, 1.055, 23.13, 1.111, 68.45 ]
					},
					{
						"time": 1.1667,
						"y": 68.45,
						"curve": [ 1.222, 0, 1.278, 0, 1.222, 68.45, 1.278, 27.42 ]
					},
					{
						"time": 1.3333,
						"curve": [ 1.389, 0, 1.611, 0, 1.403, -34.5, 1.594, -31.64 ]
					},
					{
						"time": 1.6667,
						"curve": [ 1.722, 0, 1.778, 0, 1.723, 24.27, 1.778, 68.45 ]
					},
					{
						"time": 1.8333,
						"y": 68.45,
						"curve": [ 1.889, 0, 1.944, 0, 1.889, 68.45, 1.945, 29.89 ]
					},
					{
						"time": 2,
						"curve": [ 2.056, 0, 2.278, 0, 2.084, -45.33, 2.254, -33.06 ]
					},
					{
						"time": 2.3333,
						"curve": [ 2.389, 0, 2.444, 0, 2.389, 23.13, 2.444, 68.45 ]
					},
					{
						"time": 2.5,
						"y": 68.45,
						"curve": [ 2.556, 0, 2.611, 0, 2.556, 68.45, 2.611, 27.42 ]
					},
					{
						"time": 2.6667,
						"curve": [ 2.722, 0, 2.944, 0, 2.737, -34.5, 2.927, -31.64 ]
					},
					{
						"time": 3,
						"curve": [ 3.056, 0, 3.111, 0, 3.056, 24.27, 3.111, 68.45 ]
					},
					{
						"time": 3.1667,
						"y": 68.45,
						"curve": [ 3.222, 0, 3.278, 0, 3.222, 68.45, 3.278, 29.89 ]
					},
					{
						"time": 3.3333,
						"curve": [ 3.389, 0, 3.611, 0, 3.417, -45.33, 3.588, -33.06 ]
					},
					{
						"time": 3.6667,
						"curve": [ 3.722, 0, 3.778, 0, 3.722, 23.13, 3.778, 68.45 ]
					},
					{
						"time": 3.8333,
						"y": 68.45,
						"curve": [ 3.889, 0, 3.944, 0, 3.889, 68.45, 3.944, 27.42 ]
					},
					{
						"time": 4,
						"curve": [ 4.056, 0, 4.278, 0, 4.07, -34.5, 4.26, -31.64 ]
					},
					{
						"time": 4.3333,
						"curve": [ 4.389, 0, 4.444, 0, 4.389, 24.27, 4.444, 68.45 ]
					},
					{
						"time": 4.5,
						"y": 68.45,
						"curve": [ 4.556, 0, 4.611, 0, 4.556, 68.45, 4.612, 29.89 ]
					},
					{
						"time": 4.6667,
						"curve": [ 4.722, 0, 4.944, 0, 4.75, -45.33, 4.921, -33.06 ]
					},
					{
						"time": 5,
						"curve": [ 5.056, 0, 5.111, 0, 5.055, 23.13, 5.111, 68.45 ]
					},
					{
						"time": 5.1667,
						"y": 68.45,
						"curve": [ 5.222, 0, 5.278, 0, 5.222, 68.45, 5.278, 27.42 ]
					},
					{
						"time": 5.3333,
						"curve": [ 5.389, 0, 5.611, 0, 5.403, -34.5, 5.594, -31.64 ]
					},
					{
						"time": 5.6667,
						"curve": [ 5.722, 0, 5.778, 0, 5.723, 24.27, 5.778, 68.45 ]
					},
					{
						"time": 5.8333,
						"y": 68.45,
						"curve": [ 5.889, 0, 5.944, 0, 5.889, 68.45, 5.945, 29.89 ]
					},
					{
						"time": 6,
						"curve": [ 6.056, 0, 6.278, 0, 6.084, -45.33, 6.254, -33.06 ]
					},
					{
						"time": 6.3333,
						"curve": [ 6.389, 0, 6.444, 0, 6.389, 23.13, 6.444, 68.45 ]
					},
					{
						"time": 6.5,
						"y": 68.45,
						"curve": [ 6.556, 0, 6.611, 0, 6.556, 68.45, 6.611, 27.42 ]
					},
					{
						"time": 6.6667,
						"curve": [ 6.8, 0, 7.011, 0, 6.8, -65.81, 7.011, 68.45 ]
					},
					{
						"time": 7.0667,
						"y": 68.45,
						"curve": [ 7.122, 0, 7.178, 0, 7.122, 68.45, 7.178, 27.42 ]
					},
					{
						"time": 7.2333,
						"curve": [ 7.289, 0, 7.511, 0, 7.303, -34.5, 7.494, -31.64 ]
					},
					{
						"time": 7.5667,
						"curve": [ 7.622, 0, 7.678, 0, 7.623, 24.27, 7.678, 68.45 ]
					},
					{
						"time": 7.7333,
						"y": 68.45,
						"curve": [ 7.789, 0, 7.844, 0, 7.789, 68.45, 7.845, 29.89 ]
					},
					{
						"time": 7.9,
						"curve": [ 7.956, 0, 8.178, 0, 7.984, -45.33, 8.154, -33.06 ]
					},
					{
						"time": 8.2333,
						"curve": [ 8.289, 0, 8.344, 0, 8.289, 23.13, 8.344, 68.45 ]
					},
					{
						"time": 8.4,
						"y": 68.45,
						"curve": [ 8.456, 0, 8.511, 0, 8.456, 68.45, 8.511, 27.42 ]
					},
					{
						"time": 8.5667,
						"curve": [ 8.622, 0, 8.844, 0, 8.637, -34.5, 8.827, -31.64 ]
					},
					{
						"time": 8.9,
						"curve": [ 8.956, 0, 9.011, 0, 8.956, 24.27, 9.011, 68.45 ]
					},
					{
						"time": 9.0667,
						"y": 68.45,
						"curve": [ 9.122, 0, 9.278, -1.14, 9.122, 68.45, 9.27, -0.44 ]
					},
					{
						"time": 9.3333,
						"curve": [ 9.418, 1.74, 9.532, 47.51, 9.395, 0.43, 9.583, 88.06 ]
					},
					{
						"time": 9.6333,
						"x": 46.53,
						"y": 96.01,
						"curve": [ 9.727, 45.63, 9.932, 0, 9.751, 113.97, 9.91, 0.32 ]
					},
					{
						"time": 10,
						"curve": [ 10.042, 0, 10.7, 0, 10.163, -0.58, 11.029, 0.58 ]
					},
					{
						"time": 11.0333,
						"curve": [ 11.121, 0, 11.235, -84.95, 11.152, -15.13, 11.333, -108.09 ]
					},
					{
						"time": 11.3667,
						"x": -83.44,
						"y": -125.35,
						"curve": [ 11.54, -81.46, 11.607, -165.43, 11.41, -147.52, 11.675, -308.42 ]
					},
					{
						"time": 11.7667,
						"x": -174.67,
						"y": -310.11,
						"curve": [ 12.014, -189.01, 12.177, -132.31, 11.915, -312.83, 12.197, -310.18 ]
					},
					{
						"time": 12.2667,
						"x": -112.67,
						"y": -311.08,
						"curve": [ 12.402, -82.96, 13.188, -42.18, 12.575, -315.1, 13.182, -343.86 ]
					},
					{
						"time": 13.3,
						"x": -45.74,
						"y": -344,
						"curve": [ 13.334, -46.8, 17.006, -100.25, 13.333, -344.04, 17.018, -342.58 ]
					},
					{
						"time": 17.6333,
						"x": -103.31,
						"y": -339.9,
						"curve": [ 18.271, -106.41, 19.34, -99.28, 18.249, -337.22, 19.351, -342.58 ]
					},
					{ "time": 19.9667, "x": -103.31, "y": -339.9, "curve": "stepped" },
					{ "time": 20.9667, "x": -103.31, "y": -339.9, "curve": "stepped" },
					{ "time": 21.3667, "x": -103.31, "y": -339.9 }
				],
				"scale": [
					{ "time": 20.9667, "curve": "stepped" },
					{ "time": 21.3667 }
				]
			},
			"Body": {
				"rotate": [
					{ "value": 2.94, "curve": "stepped" },
					{ "time": 1.3333, "value": 2.94, "curve": "stepped" },
					{ "time": 2.6667, "value": 2.94, "curve": "stepped" },
					{ "time": 4, "value": 2.94, "curve": "stepped" },
					{ "time": 5.3333, "value": 2.94, "curve": "stepped" },
					{ "time": 6.6667, "value": 2.94, "curve": "stepped" },
					{ "time": 7.2333, "value": 2.94, "curve": "stepped" },
					{
						"time": 8.5667,
						"value": 2.94,
						"curve": [ 9.011, 2.94, 9.222, 10.02 ]
					},
					{
						"time": 9.6667,
						"value": 12.34,
						"curve": [ 9.963, 13.89, 10.708, -6 ]
					},
					{
						"time": 10.8333,
						"value": -1.78,
						"curve": [ 10.962, 2.42, 10.977, 16.58 ]
					},
					{
						"time": 11.0333,
						"value": 17.44,
						"curve": [ 11.178, 19.64, 11.322, 5.17 ]
					},
					{
						"time": 11.4667,
						"value": 3.81,
						"curve": [ 11.578, 2.76, 11.689, 1.09 ]
					},
					{
						"time": 11.8,
						"value": 4.68,
						"curve": [ 11.855, 6.46, 11.911, 16.43 ]
					},
					{
						"time": 11.9667,
						"value": 16.43,
						"curve": [ 12.233, 16.43, 12.5, 0 ]
					},
					{ "time": 12.7667, "curve": "stepped" },
					{
						"time": 13.2,
						"curve": [ 13.22, 0, 13.646, -0.66 ]
					},
					{
						"time": 14.1,
						"value": 2.84,
						"curve": [ 14.197, 3.59, 14.412, -13.74 ]
					},
					{
						"time": 14.5,
						"value": -13.39,
						"curve": [ 14.578, -13.07, 14.836, -12.76 ]
					},
					{
						"time": 15.0667,
						"value": -13.39,
						"curve": [ 15.267, -13.92, 15.692, 13.94 ]
					},
					{
						"time": 15.8667,
						"value": 17.56,
						"curve": [ 16.039, 21.14, 16.963, 17.43 ]
					},
					{
						"time": 17.1667,
						"value": 15.15,
						"curve": [ 17.392, 12.67, 17.481, 4.37 ]
					},
					{ "time": 17.6333, "value": 4.37, "curve": "stepped" },
					{
						"time": 19.9667,
						"value": 4.37,
						"curve": [ 20.3, 4.37, 20.633, 4.37 ]
					},
					{
						"time": 20.9667,
						"value": 4.37,
						"curve": [ 21.111, 4.37, 21.222, 4.37 ]
					},
					{ "time": 21.3667, "value": 4.37 }
				],
				"translate": [
					{ "curve": "stepped" },
					{ "time": 1.3333, "curve": "stepped" },
					{ "time": 2.6667, "curve": "stepped" },
					{ "time": 4, "curve": "stepped" },
					{ "time": 5.3333, "curve": "stepped" },
					{ "time": 6.6667, "curve": "stepped" },
					{ "time": 7.2333, "curve": "stepped" },
					{ "time": 8.5667, "curve": "stepped" },
					{ "time": 9.6667, "curve": "stepped" },
					{
						"time": 11.4667,
						"curve": [ 11.481, 0, 11.614, 31.13, 11.481, 0, 11.614, 2.31 ]
					},
					{
						"time": 11.7667,
						"x": 31.13,
						"y": 2.31,
						"curve": [ 11.829, 31.13, 11.895, -24.8, 11.829, 2.31, 11.895, -70.31 ]
					},
					{
						"time": 11.9667,
						"x": -24.8,
						"y": -70.31,
						"curve": [ 12.064, -24.8, 12.165, -22.05, 12.064, -70.31, 12.165, -62.5 ]
					},
					{
						"time": 12.2667,
						"x": -18.37,
						"y": -52.08,
						"curve": [ 12.475, -11.02, 12.694, -5.32, 12.475, -31.25, 12.665, 0 ]
					},
					{
						"time": 12.7667,
						"curve": [ 12.816, 3.61, 13.127, -5.32, 12.829, 0, 13.099, 0 ]
					},
					{
						"time": 13.2,
						"curve": [ 13.25, 3.61, 13.267, 52.33, 13.263, 0, 13.277, 1.2 ]
					},
					{
						"time": 13.4333,
						"x": 54.5,
						"y": 1.2,
						"curve": [ 13.535, 55.82, 13.781, 56.89, 13.544, 1.2, 13.785, 1.6 ]
					},
					{
						"time": 14.1,
						"x": 57.59,
						"y": 2.01,
						"curve": [ 14.143, 57.69, 15.033, 69.35, 14.142, 2.06, 15.024, 3.44 ]
					},
					{
						"time": 15.0667,
						"x": 69.55,
						"y": 3.49,
						"curve": [ 15.279, 70.83, 15.348, -9.11, 15.11, 3.54, 15.474, 20.26 ]
					},
					{
						"time": 15.6,
						"x": -9.1,
						"y": 20.34,
						"curve": [ 16.171, -9.06, 16.181, 51.67, 15.822, 20.5, 16.259, 3.28 ]
					},
					{
						"time": 16.5667,
						"x": 54.5,
						"y": 1.2,
						"curve": [ 16.774, 56.02, 17.465, 53.85, 16.774, -0.2, 17.477, 1.2 ]
					},
					{
						"time": 17.6333,
						"x": 54.5,
						"y": 1.2,
						"curve": [ 17.82, 55.22, 19.689, 53.87, 18.9, 1.2, 19.811, 1.2 ]
					},
					{ "time": 19.9667, "x": 54.5, "y": 1.2, "curve": "stepped" },
					{ "time": 20.9667, "x": 54.5, "y": 1.2, "curve": "stepped" },
					{ "time": 21.3667, "x": 54.5, "y": 1.2 }
				],
				"scale": [
					{ "time": 11.6333 },
					{ "time": 11.7667, "x": 0.916 },
					{ "time": 11.9, "curve": "stepped" },
					{ "time": 20.9667, "curve": "stepped" },
					{ "time": 21.3667 }
				]
			},
			"Shoulder_control": {
				"rotate": [
					{ "curve": "stepped" },
					{ "time": 1.3333, "curve": "stepped" },
					{ "time": 2.6667, "curve": "stepped" },
					{ "time": 4, "curve": "stepped" },
					{ "time": 5.3333, "curve": "stepped" },
					{ "time": 6.6667, "curve": "stepped" },
					{ "time": 7.2333, "curve": "stepped" },
					{ "time": 8.5667, "curve": "stepped" },
					{ "time": 9.9, "curve": "stepped" },
					{ "time": 10.0333, "curve": "stepped" },
					{ "time": 12, "curve": "stepped" },
					{ "time": 20.9667, "curve": "stepped" },
					{ "time": 21.3667 }
				],
				"translate": [
					{
						"y": 21.91,
						"curve": [ 0.167, 0, 0.333, 0, 0.167, 21.91, 0.333, 0 ]
					},
					{
						"time": 0.5,
						"curve": [ 0.661, 0, 0.757, 0, 0.661, 0, 0.757, -8.36 ]
					},
					{
						"time": 0.8333,
						"y": -8.36,
						"curve": [ 0.97, 0, 1.167, 0, 0.97, -8.36, 1.167, 21.91 ]
					},
					{
						"time": 1.3333,
						"y": 21.91,
						"curve": [ 1.5, 0, 1.667, 0, 1.5, 21.91, 1.667, 0 ]
					},
					{
						"time": 1.8333,
						"curve": [ 1.995, 0, 2.09, 0, 1.995, 0, 2.09, -8.36 ]
					},
					{
						"time": 2.1667,
						"y": -8.36,
						"curve": [ 2.303, 0, 2.5, 0, 2.303, -8.36, 2.5, 21.91 ]
					},
					{
						"time": 2.6667,
						"y": 21.91,
						"curve": [ 2.833, 0, 3, 0, 2.833, 21.91, 3, 0 ]
					},
					{
						"time": 3.1667,
						"curve": [ 3.328, 0, 3.424, 0, 3.328, 0, 3.424, -8.36 ]
					},
					{
						"time": 3.5,
						"y": -8.36,
						"curve": [ 3.637, 0, 3.833, 0, 3.637, -8.36, 3.833, 21.91 ]
					},
					{
						"time": 4,
						"y": 21.91,
						"curve": [ 4.167, 0, 4.333, 0, 4.167, 21.91, 4.333, 0 ]
					},
					{
						"time": 4.5,
						"curve": [ 4.661, 0, 4.757, 0, 4.661, 0, 4.757, -8.36 ]
					},
					{
						"time": 4.8333,
						"y": -8.36,
						"curve": [ 4.97, 0, 5.167, 0, 4.97, -8.36, 5.167, 21.91 ]
					},
					{
						"time": 5.3333,
						"y": 21.91,
						"curve": [ 5.5, 0, 5.667, 0, 5.5, 21.91, 5.667, 0 ]
					},
					{
						"time": 5.8333,
						"curve": [ 5.995, 0, 6.09, 0, 5.995, 0, 6.09, -8.36 ]
					},
					{
						"time": 6.1667,
						"y": -8.36,
						"curve": [ 6.303, 0, 6.5, 0, 6.303, -8.36, 6.5, 21.91 ]
					},
					{ "time": 6.6667, "y": 21.91, "curve": "stepped" },
					{
						"time": 7.2333,
						"y": 21.91,
						"curve": [ 7.4, 0, 7.567, 0, 7.4, 21.91, 7.567, 0 ]
					},
					{
						"time": 7.7333,
						"curve": [ 7.895, 0, 7.99, 0, 7.895, 0, 7.99, -8.36 ]
					},
					{
						"time": 8.0667,
						"y": -8.36,
						"curve": [ 8.203, 0, 8.4, 0, 8.203, -8.36, 8.4, 21.91 ]
					},
					{
						"time": 8.5667,
						"y": 21.91,
						"curve": [ 8.733, 0, 8.9, 0, 8.733, 21.91, 8.9, 0 ]
					},
					{
						"time": 9.0667,
						"curve": [ 9.228, 0, 9.324, 0, 9.228, 0, 9.324, -8.36 ]
					},
					{
						"time": 9.4,
						"y": -8.36,
						"curve": [ 9.537, 0, 9.773, 0, 9.537, -8.36, 9.773, 21.91 ]
					},
					{
						"time": 9.9,
						"y": 21.91,
						"curve": [ 9.942, 0, 9.991, 0, 9.942, 21.91, 9.991, 0 ]
					},
					{ "time": 10.0333, "curve": "stepped" },
					{
						"time": 12.6667,
						"curve": [ 12.891, 0, 13.116, 0, 12.891, 0, 13.116, 21.8 ]
					},
					{
						"time": 13.3333,
						"y": 21.8,
						"curve": [ 15.531, 0, 18.902, 0, 15.531, 21.8, 18.902, 0 ]
					},
					{ "time": 20.9667, "curve": "stepped" },
					{ "time": 21.3667 }
				],
				"scale": [
					{ "time": 20.9667, "curve": "stepped" },
					{ "time": 21.3667 }
				]
			},
			"Arm_R2": {
				"rotate": [
					{
						"value": -15.15,
						"curve": [ 0.174, -17.07, 0.693, 6.8 ]
					},
					{
						"time": 0.8333,
						"value": 6.17,
						"curve": [ 1.022, 5.32, 1.167, -13.32 ]
					},
					{
						"time": 1.3333,
						"value": -15.15,
						"curve": [ 1.507, -17.07, 2.026, 6.8 ]
					},
					{
						"time": 2.1667,
						"value": 6.17,
						"curve": [ 2.355, 5.32, 2.5, -13.32 ]
					},
					{
						"time": 2.6667,
						"value": -15.15,
						"curve": [ 2.841, -17.07, 3.359, 6.8 ]
					},
					{
						"time": 3.5,
						"value": 6.17,
						"curve": [ 3.688, 5.32, 3.833, -13.32 ]
					},
					{
						"time": 4,
						"value": -15.15,
						"curve": [ 4.174, -17.07, 4.693, 6.8 ]
					},
					{
						"time": 4.8333,
						"value": 6.17,
						"curve": [ 5.022, 5.32, 5.167, -13.32 ]
					},
					{
						"time": 5.3333,
						"value": -15.15,
						"curve": [ 5.507, -17.07, 6.026, 6.8 ]
					},
					{
						"time": 6.1667,
						"value": 6.17,
						"curve": [ 6.355, 5.32, 6.5, -13.32 ]
					},
					{
						"time": 6.6667,
						"value": -15.15,
						"curve": [ 6.833, -16.99, 7.067, -13.32 ]
					},
					{
						"time": 7.2333,
						"value": -15.15,
						"curve": [ 7.407, -17.07, 7.926, 6.8 ]
					},
					{
						"time": 8.0667,
						"value": 6.17,
						"curve": [ 8.255, 5.32, 8.4, -13.32 ]
					},
					{
						"time": 8.5667,
						"value": -15.15,
						"curve": [ 8.741, -17.07, 9.259, 6.8 ]
					},
					{
						"time": 9.4,
						"value": 6.17,
						"curve": [ 9.588, 5.32, 9.773, -13.32 ]
					},
					{
						"time": 9.9,
						"value": -15.15,
						"curve": [ 9.909, -15.28, 10.007, -33.94 ]
					},
					{
						"time": 10.1333,
						"value": -28.41,
						"curve": [ 10.258, -23.1, 10.409, 6.41 ]
					},
					{
						"time": 10.5333,
						"value": 6.41,
						"curve": [ 10.767, 6.41, 11, 6.41 ]
					},
					{
						"time": 11.2333,
						"value": 6.26,
						"curve": [ 11.489, 6.09, 11.744, -3.48 ]
					},
					{
						"time": 12,
						"value": -14.32,
						"curve": [ 12.1, -18.56, 12.2, -38.98 ]
					},
					{
						"time": 12.3,
						"value": -38.98,
						"curve": [ 12.556, -38.98, 12.811, -37.33 ]
					},
					{
						"time": 13.0667,
						"value": -37.33,
						"curve": [ 13.267, -37.33, 13.467, -50.16 ]
					},
					{
						"time": 13.6667,
						"value": -66.73,
						"curve": [ 13.778, -75.92, 13.889, -93.45 ]
					},
					{
						"time": 14,
						"value": -93.45,
						"curve": [ 14.111, -93.45, 14.219, -8.61 ]
					},
					{
						"time": 14.3333,
						"value": 0.71,
						"curve": [ 14.424, 8.1, 14.644, 1.81 ]
					},
					{
						"time": 14.8333,
						"value": -0.3,
						"curve": [ 14.999, -2.09, 15.142, 0.71 ]
					},
					{
						"time": 15.1667,
						"value": 0.71,
						"curve": [ 15.173, 0.71, 15.278, -39.38 ]
					},
					{
						"time": 15.3333,
						"value": -56.33,
						"curve": [ 15.397, -75.96, 15.416, -73.06 ]
					},
					{
						"time": 15.5,
						"value": -76.83,
						"curve": [ 15.569, -79.95, 15.613, -65.6 ]
					},
					{
						"time": 15.6667,
						"value": -65.39,
						"curve": [ 15.691, -65.29, 15.705, -68.84 ]
					},
					{ "time": 15.7333, "value": -69.01, "curve": "stepped" },
					{
						"time": 15.8,
						"value": -43.05,
						"curve": [ 16.167, -43.05, 16.533, -79.42 ]
					},
					{
						"time": 16.9,
						"value": -79.42,
						"curve": [ 17.189, -79.42, 17.478, -20.69 ]
					},
					{ "time": 17.7667, "value": -20.69, "curve": "stepped" },
					{ "time": 20.8, "value": -20.69, "curve": "stepped" },
					{ "time": 21.2333, "value": -20.69 }
				],
				"translate": [
					{ "curve": "stepped" },
					{ "time": 1.3333, "curve": "stepped" },
					{ "time": 2.6667, "curve": "stepped" },
					{ "time": 4, "curve": "stepped" },
					{ "time": 5.3333, "curve": "stepped" },
					{ "time": 6.6667, "curve": "stepped" },
					{ "time": 7.2333, "curve": "stepped" },
					{ "time": 8.5667, "curve": "stepped" },
					{ "time": 9.9, "curve": "stepped" },
					{ "time": 15.6667, "curve": "stepped" },
					{ "time": 20.9667, "curve": "stepped" },
					{ "time": 21.3667 }
				],
				"scale": [
					{ "time": 20.9667, "curve": "stepped" },
					{ "time": 21.3667 }
				]
			},
			"basket_haed": {
				"rotate": [
					{
						"value": -22.54,
						"curve": [ 0.125, -26.73, 1.209, -18.35 ]
					},
					{
						"time": 1.3333,
						"value": -22.54,
						"curve": [ 1.458, -26.73, 2.542, -18.35 ]
					},
					{
						"time": 2.6667,
						"value": -22.54,
						"curve": [ 2.791, -26.73, 3.875, -18.35 ]
					},
					{
						"time": 4,
						"value": -22.54,
						"curve": [ 4.125, -26.73, 5.209, -18.35 ]
					},
					{
						"time": 5.3333,
						"value": -22.54,
						"curve": [ 5.458, -26.73, 6.542, -18.35 ]
					},
					{
						"time": 6.6667,
						"value": -22.54,
						"curve": [ 6.791, -26.73, 7.109, -18.35 ]
					},
					{
						"time": 7.2333,
						"value": -22.54,
						"curve": [ 7.358, -26.73, 8.442, -18.35 ]
					},
					{
						"time": 8.5667,
						"value": -22.54,
						"curve": [ 8.661, -25.71, 9.286, -20.71 ]
					},
					{
						"time": 9.6333,
						"value": -23.83,
						"curve": [ 9.685, -24.29, 9.737, -34.06 ]
					},
					{
						"time": 9.7667,
						"value": -40.06,
						"curve": [ 9.81, -48.7, 9.865, -69.22 ]
					},
					{
						"time": 9.9,
						"value": -67.43,
						"curve": [ 10.029, -60.82, 10.151, -8.64 ]
					},
					{
						"time": 10.1667,
						"value": -8.64,
						"curve": [ 12.655, -8.15, 11.567, -8.64 ]
					},
					{ "time": 12.2667, "value": -8.64, "curve": "stepped" },
					{ "time": 20.9667, "value": -8.64, "curve": "stepped" },
					{ "time": 21.3667, "value": -8.64 }
				],
				"translate": [
					{ "curve": "stepped" },
					{ "time": 1.3333, "curve": "stepped" },
					{ "time": 2.6667, "curve": "stepped" },
					{ "time": 4, "curve": "stepped" },
					{ "time": 5.3333, "curve": "stepped" },
					{ "time": 6.6667, "curve": "stepped" },
					{ "time": 7.2333, "curve": "stepped" },
					{
						"time": 8.5667,
						"curve": [ 8.933, 0, 9.276, 163.22, 8.933, 0, 9.276, 179.81 ]
					},
					{
						"time": 9.6333,
						"x": 163.22,
						"y": 179.81,
						"curve": [ 9.678, 163.22, 9.71, 110.63, 9.678, 179.81, 9.736, 227.94 ]
					},
					{
						"time": 9.7667,
						"x": 67.54,
						"y": 246.66,
						"curve": [ 9.815, 31.29, 10.14, -350.6, 9.81, 273.71, 10.139, 20.59 ]
					},
					{
						"time": 10.1667,
						"x": -350.43,
						"y": 20.51,
						"curve": [ 11.157, -344.18, 11.567, -350.43, 11.332, 17.36, 11.567, 20.51 ]
					},
					{ "time": 12.2667, "x": -350.43, "y": 20.51, "curve": "stepped" },
					{ "time": 20.9667, "x": -350.43, "y": 20.51, "curve": "stepped" },
					{ "time": 21.3667, "x": -350.43, "y": 20.51 }
				],
				"scale": [
					{ "time": 20.9667, "curve": "stepped" },
					{ "time": 21.3667 }
				]
			},
			"Cape_R": {
				"rotate": [
					{
						"value": 29.52,
						"curve": [ 0.18, 31.36, 0.35, 13.51 ]
					},
					{
						"time": 0.5,
						"value": 7.49,
						"curve": [ 0.616, 2.83, 0.949, -1.95 ]
					},
					{
						"time": 1.0333,
						"value": 2.19,
						"curve": [ 1.117, 6.31, 1.233, 28.49 ]
					},
					{
						"time": 1.3333,
						"value": 29.52,
						"curve": [ 1.513, 31.36, 1.684, 13.51 ]
					},
					{
						"time": 1.8333,
						"value": 7.49,
						"curve": [ 1.949, 2.83, 2.282, -1.95 ]
					},
					{
						"time": 2.3667,
						"value": 2.19,
						"curve": [ 2.451, 6.31, 2.567, 28.49 ]
					},
					{
						"time": 2.6667,
						"value": 29.52,
						"curve": [ 2.847, 31.36, 3.017, 13.51 ]
					},
					{
						"time": 3.1667,
						"value": 7.49,
						"curve": [ 3.282, 2.83, 3.616, -1.95 ]
					},
					{
						"time": 3.7,
						"value": 2.19,
						"curve": [ 3.784, 6.31, 3.9, 28.49 ]
					},
					{
						"time": 4,
						"value": 29.52,
						"curve": [ 4.18, 31.36, 4.35, 13.51 ]
					},
					{
						"time": 4.5,
						"value": 7.49,
						"curve": [ 4.616, 2.83, 4.949, -1.95 ]
					},
					{
						"time": 5.0333,
						"value": 2.19,
						"curve": [ 5.117, 6.31, 5.233, 28.49 ]
					},
					{
						"time": 5.3333,
						"value": 29.52,
						"curve": [ 5.513, 31.36, 5.684, 13.51 ]
					},
					{
						"time": 5.8333,
						"value": 7.49,
						"curve": [ 5.949, 2.83, 6.282, -1.95 ]
					},
					{
						"time": 6.3667,
						"value": 2.19,
						"curve": [ 6.451, 6.31, 6.567, 28.49 ]
					},
					{
						"time": 6.6667,
						"value": 29.52,
						"curve": [ 6.756, 30.43, 6.849, -1.95 ]
					},
					{
						"time": 6.9333,
						"value": 2.19,
						"curve": [ 7.017, 6.31, 7.133, 28.49 ]
					},
					{
						"time": 7.2333,
						"value": 29.52,
						"curve": [ 7.413, 31.36, 7.584, 14.21 ]
					},
					{
						"time": 7.7333,
						"value": 7.49,
						"curve": [ 7.849, 2.3, 8.182, -1.95 ]
					},
					{
						"time": 8.2667,
						"value": 2.19,
						"curve": [ 8.351, 6.31, 8.467, 28.49 ]
					},
					{
						"time": 8.5667,
						"value": 29.52,
						"curve": [ 8.747, 31.36, 8.915, 7.49 ]
					},
					{
						"time": 9.0667,
						"value": 7.49,
						"curve": [ 9.114, 7.49, 9.212, -19.93 ]
					},
					{
						"time": 9.3333,
						"value": -2.44,
						"curve": [ 9.399, 6.83, 9.59, -6.93 ]
					},
					{
						"time": 9.7333,
						"value": 9.16,
						"curve": [ 9.81, 17.57, 9.874, 62.41 ]
					},
					{
						"time": 9.9,
						"value": 62.31,
						"curve": [ 10.205, 61.22, 10.401, 3.97 ]
					},
					{
						"time": 10.5,
						"value": 1.94,
						"curve": [ 10.589, 0.12, 10.778, 1.53 ]
					},
					{
						"time": 10.9667,
						"value": 1.58,
						"curve": [ 11.06, 1.6, 11.685, 1.52 ]
					},
					{
						"time": 11.8667,
						"value": 5.42,
						"curve": [ 12.057, 9.49, 12.19, 21.62 ]
					},
					{
						"time": 12.5333,
						"value": 22.33,
						"curve": [ 13.056, 23.41, 13.324, 15.79 ]
					},
					{
						"time": 13.6667,
						"value": 22.33,
						"curve": [ 13.879, 26.39, 14.002, 53.12 ]
					},
					{
						"time": 14.3333,
						"value": 66.78,
						"curve": [ 14.525, 74.68, 14.75, 69.8 ]
					},
					{
						"time": 15,
						"value": 70.05,
						"curve": [ 15.284, 70.34, 15.335, 35.78 ]
					},
					{
						"time": 15.6667,
						"value": 34.99,
						"curve": [ 15.736, 34.82, 15.831, 32.47 ]
					},
					{
						"time": 16.0667,
						"value": 29.46,
						"curve": [ 16.121, 28.78, 16.178, 48.94 ]
					},
					{
						"time": 16.2333,
						"value": 48.22,
						"curve": [ 16.577, 44.05, 16.297, 18.6 ]
					},
					{
						"time": 16.5667,
						"value": 17.31,
						"curve": [ 16.867, 15.92, 16.964, 18.6 ]
					},
					{
						"time": 17.2333,
						"value": 17.31,
						"curve": [ 17.534, 15.92, 17.474, 26.88 ]
					},
					{ "time": 18.2333, "value": 26.88, "curve": "stepped" },
					{ "time": 20.9667, "value": 26.88, "curve": "stepped" },
					{ "time": 21.3667, "value": 26.88 }
				],
				"translate": [
					{ "curve": "stepped" },
					{ "time": 1.3333, "curve": "stepped" },
					{ "time": 2.6667, "curve": "stepped" },
					{ "time": 4, "curve": "stepped" },
					{ "time": 5.3333, "curve": "stepped" },
					{ "time": 6.6667, "curve": "stepped" },
					{ "time": 7.2333, "curve": "stepped" },
					{ "time": 8.5667, "curve": "stepped" },
					{ "time": 9.9, "curve": "stepped" },
					{ "time": 10.0333, "curve": "stepped" },
					{ "time": 20.9667, "curve": "stepped" },
					{ "time": 21.3667 }
				],
				"scale": [
					{ "time": 20.9667, "curve": "stepped" },
					{ "time": 21.3667 }
				]
			},
			"basket_Up": {
				"rotate": [
					{
						"curve": [ 0.078, -5.01, 0.222, -17.39 ]
					},
					{
						"time": 0.3333,
						"value": -17.39,
						"curve": [ 0.544, -17.39, 0.753, 13.55 ]
					},
					{
						"time": 0.9667,
						"value": 15.72,
						"curve": [ 1.087, 16.94, 1.556, -17.39 ]
					},
					{
						"time": 1.6667,
						"value": -17.39,
						"curve": [ 1.878, -17.39, 2.086, 13.55 ]
					},
					{
						"time": 2.3,
						"value": 15.72,
						"curve": [ 2.42, 16.94, 2.544, 7.84 ]
					},
					{
						"time": 2.6667,
						"curve": [ 2.745, -5.01, 2.889, -17.39 ]
					},
					{
						"time": 3,
						"value": -17.39,
						"curve": [ 3.211, -17.39, 3.419, 13.55 ]
					},
					{
						"time": 3.6333,
						"value": 15.72,
						"curve": [ 3.753, 16.94, 3.878, 7.84 ]
					},
					{
						"time": 4,
						"curve": [ 4.078, -5.01, 4.222, -17.39 ]
					},
					{
						"time": 4.3333,
						"value": -17.39,
						"curve": [ 4.544, -17.39, 4.753, 13.55 ]
					},
					{
						"time": 4.9667,
						"value": 15.72,
						"curve": [ 5.087, 16.94, 5.211, 7.84 ]
					},
					{
						"time": 5.3333,
						"curve": [ 5.411, -5.01, 5.556, -17.39 ]
					},
					{
						"time": 5.6667,
						"value": -17.39,
						"curve": [ 5.878, -17.39, 6.086, 13.55 ]
					},
					{
						"time": 6.3,
						"value": 15.72,
						"curve": [ 6.42, 16.94, 6.544, 7.84 ]
					},
					{
						"time": 6.6667,
						"curve": [ 6.938, -17.39, 7.456, -17.39 ]
					},
					{
						"time": 7.5667,
						"value": -17.39,
						"curve": [ 7.778, -17.39, 7.986, 13.55 ]
					},
					{
						"time": 8.2,
						"value": 15.72,
						"curve": [ 8.32, 16.94, 8.789, -17.39 ]
					},
					{
						"time": 8.9,
						"value": -17.39,
						"curve": [ 9.122, -17.39, 9.319, 13.55 ]
					},
					{
						"time": 9.5333,
						"value": 15.72,
						"curve": [ 9.653, 16.94, 9.814, 1.75 ]
					},
					{
						"time": 9.9,
						"curve": [ 9.959, -1.21, 17.789, 0 ]
					},
					{ "time": 20.9667, "curve": "stepped" },
					{ "time": 21.3667 }
				],
				"translate": [
					{ "curve": "stepped" },
					{ "time": 1.3333, "curve": "stepped" },
					{ "time": 2.6667, "curve": "stepped" },
					{ "time": 4, "curve": "stepped" },
					{ "time": 5.3333, "curve": "stepped" },
					{ "time": 6.6667, "curve": "stepped" },
					{ "time": 7.2333, "curve": "stepped" },
					{ "time": 8.5667, "curve": "stepped" },
					{ "time": 9.9, "curve": "stepped" },
					{ "time": 20.9667, "curve": "stepped" },
					{ "time": 21.3667 }
				],
				"scale": [
					{ "time": 10.0667, "curve": "stepped" },
					{ "time": 20.9667, "curve": "stepped" },
					{ "time": 21.3667 }
				]
			},
			"Shoulder_center": {
				"rotate": [
					{ "curve": "stepped" },
					{ "time": 1.3333, "curve": "stepped" },
					{ "time": 2.6667, "curve": "stepped" },
					{ "time": 4, "curve": "stepped" },
					{ "time": 5.3333, "curve": "stepped" },
					{ "time": 6.6667, "curve": "stepped" },
					{ "time": 7.2333, "curve": "stepped" },
					{ "time": 8.5667, "curve": "stepped" },
					{ "time": 9.9, "curve": "stepped" },
					{ "time": 10.0333, "curve": "stepped" },
					{ "time": 20.9667, "curve": "stepped" },
					{ "time": 21.3667 }
				],
				"translate": [
					{ "curve": "stepped" },
					{ "time": 1.3333, "curve": "stepped" },
					{ "time": 2.6667, "curve": "stepped" },
					{ "time": 4, "curve": "stepped" },
					{ "time": 5.3333, "curve": "stepped" },
					{ "time": 6.6667, "curve": "stepped" },
					{ "time": 7.2333, "curve": "stepped" },
					{ "time": 8.5667, "curve": "stepped" },
					{ "time": 9.9, "curve": "stepped" },
					{ "time": 10.0333, "curve": "stepped" },
					{ "time": 20.9667, "curve": "stepped" },
					{ "time": 21.3667 }
				],
				"scale": [
					{ "time": 20.9667, "curve": "stepped" },
					{ "time": 21.3667 }
				]
			},
			"Shoulder_R": {
				"rotate": [
					{ "curve": "stepped" },
					{ "time": 1.3333, "curve": "stepped" },
					{ "time": 2.6667, "curve": "stepped" },
					{ "time": 4, "curve": "stepped" },
					{ "time": 5.3333, "curve": "stepped" },
					{ "time": 6.6667, "curve": "stepped" },
					{ "time": 7.2333, "curve": "stepped" },
					{ "time": 8.5667, "curve": "stepped" },
					{ "time": 9.9, "curve": "stepped" },
					{
						"time": 10.0333,
						"curve": [ 13.167, 0, 17.833, 0 ]
					},
					{ "time": 20.9667, "curve": "stepped" },
					{ "time": 21.3667 }
				],
				"translate": [
					{ "curve": "stepped" },
					{ "time": 1.3333, "curve": "stepped" },
					{ "time": 2.6667, "curve": "stepped" },
					{ "time": 4, "curve": "stepped" },
					{ "time": 5.3333, "curve": "stepped" },
					{ "time": 6.6667, "curve": "stepped" },
					{ "time": 7.2333, "curve": "stepped" },
					{ "time": 8.5667, "curve": "stepped" },
					{ "time": 9.9, "curve": "stepped" },
					{ "time": 10.0333, "curve": "stepped" },
					{ "time": 20.9667, "curve": "stepped" },
					{ "time": 21.3667 }
				],
				"scale": [
					{ "time": 20.9667, "curve": "stepped" },
					{ "time": 21.3667 }
				]
			},
			"Hand_R": {
				"rotate": [
					{ "curve": "stepped" },
					{ "time": 1.3333, "curve": "stepped" },
					{ "time": 2.6667, "curve": "stepped" },
					{ "time": 4, "curve": "stepped" },
					{ "time": 5.3333, "curve": "stepped" },
					{ "time": 6.6667, "curve": "stepped" },
					{ "time": 7.2333, "curve": "stepped" },
					{ "time": 8.5667, "curve": "stepped" },
					{ "time": 9.9, "curve": "stepped" },
					{ "time": 10.0333, "curve": "stepped" },
					{
						"time": 13.9333,
						"curve": [ 13.989, 0, 14.044, -13.35 ]
					},
					{ "time": 14.1, "value": -13.35, "curve": "stepped" },
					{ "time": 15.7333, "value": -13.35 },
					{ "time": 16.5667, "value": 19.14 },
					{ "time": 20.9667, "curve": "stepped" },
					{ "time": 21.3667 }
				],
				"translate": [
					{ "curve": "stepped" },
					{ "time": 1.3333, "curve": "stepped" },
					{ "time": 2.6667, "curve": "stepped" },
					{ "time": 4, "curve": "stepped" },
					{ "time": 5.3333, "curve": "stepped" },
					{ "time": 6.6667, "curve": "stepped" },
					{ "time": 7.2333, "curve": "stepped" },
					{ "time": 8.5667, "curve": "stepped" },
					{ "time": 9.9, "curve": "stepped" },
					{ "time": 10.0333, "curve": "stepped" },
					{ "time": 13.9333, "curve": "stepped" },
					{ "time": 16.4333, "curve": "stepped" },
					{ "time": 20.9667, "curve": "stepped" },
					{ "time": 21.3667 }
				],
				"scale": [
					{ "time": 20.9667, "curve": "stepped" },
					{ "time": 21.3667 }
				]
			},
			"Hand_R2": {
				"rotate": [
					{
						"curve": [ 0.484, -1.25, 0.626, -21.45 ]
					},
					{
						"time": 1.4333,
						"value": -21.45,
						"curve": [ 1.708, -21.45, 2.015, 11.32 ]
					},
					{
						"time": 2.3333,
						"value": 11.32,
						"curve": [ 2.507, 11.32, 2.688, -0.22 ]
					},
					{
						"time": 2.8667,
						"value": -11.75,
						"curve": [ 2.98, -18.82, 3.091, -28.13 ]
					},
					{
						"time": 3.2,
						"value": -28.13,
						"curve": [ 3.255, -28.13, 3.311, -19.69 ]
					},
					{
						"time": 3.3667,
						"value": -14.8,
						"curve": [ 3.507, -2.44, 3.645, 14.35 ]
					},
					{
						"time": 3.7667,
						"value": 14.35,
						"curve": [ 3.953, 14.35, 4.144, -6.39 ]
					},
					{
						"time": 4.3333,
						"value": -17.35,
						"curve": [ 4.39, -20.5, 4.445, -26.34 ]
					},
					{
						"time": 4.5,
						"value": -26.34,
						"curve": [ 4.696, -26.34, 4.895, 12.52 ]
					},
					{
						"time": 5.0667,
						"value": 12.52,
						"curve": [ 5.315, 12.52, 5.568, -25.39 ]
					},
					{
						"time": 5.8,
						"value": -25.39,
						"curve": [ 5.946, -25.39, 6.092, -9.13 ]
					},
					{
						"time": 6.2333,
						"value": -1.64,
						"curve": [ 6.313, 2.57, 6.391, 0 ]
					},
					{ "time": 6.4667, "curve": "stepped" },
					{
						"time": 7.8,
						"curve": [ 7.969, 0, 8.138, 4.46 ]
					},
					{
						"time": 8.3,
						"value": -1.77,
						"curve": [ 8.451, -7.45, 8.596, -23.86 ]
					},
					{
						"time": 8.7333,
						"value": -23.86,
						"curve": [ 8.856, -23.86, 8.979, -13.07 ]
					},
					{
						"time": 9.1,
						"value": -3.94,
						"curve": [ 9.258, 7.83, 9.413, 18.61 ]
					},
					{
						"time": 9.5667,
						"value": 18.61,
						"curve": [ 12.36, 18.61, 14.785, 0 ]
					},
					{
						"time": 15.5667,
						"curve": [ 15.635, 0, 15.618, 28.85 ]
					},
					{ "time": 15.6667, "value": 28.85, "curve": "stepped" },
					{
						"time": 17.3333,
						"value": 28.85,
						"curve": [ 17.518, 28.85, 17.66, 0.86 ]
					},
					{ "time": 18, "curve": "stepped" },
					{ "time": 20.9667, "curve": "stepped" },
					{ "time": 21.3667 }
				],
				"translate": [
					{
						"curve": [ 0.073, 0, 0.596, 4.49, 0.073, 0, 0.596, -6.23 ]
					},
					{
						"time": 1.4333,
						"x": 4.49,
						"y": -6.23,
						"curve": [ 1.705, 4.49, 2.011, -4.96, 1.705, -6.23, 2.011, 5.16 ]
					},
					{
						"time": 2.3333,
						"x": -4.99,
						"y": 5.21,
						"curve": [ 2.614, -5.02, 2.914, -1.21, 2.614, 5.25, 2.914, 0.11 ]
					},
					{
						"time": 3.2,
						"x": -1.21,
						"y": 0.11,
						"curve": [ 3.608, -1.2, 4.044, -7.17, 3.608, 0.11, 4.044, -1.47 ]
					},
					{
						"time": 4.5,
						"x": -7.15,
						"y": -1.47,
						"curve": [ 10.023, -6.9, 18.79, 0, 10.023, -1.49, 18.79, 0 ]
					},
					{ "time": 20.9667, "curve": "stepped" },
					{ "time": 21.3667 }
				],
				"scale": [
					{ "time": 20.9667, "curve": "stepped" },
					{ "time": 21.3667 }
				]
			},
			"Cape_R_Down": {
				"rotate": [
					{ "curve": "stepped" },
					{ "time": 1.3333, "curve": "stepped" },
					{ "time": 2.6667, "curve": "stepped" },
					{ "time": 4, "curve": "stepped" },
					{ "time": 5.3333, "curve": "stepped" },
					{ "time": 6.6667, "curve": "stepped" },
					{ "time": 7.2333, "curve": "stepped" },
					{ "time": 8.5667, "curve": "stepped" },
					{ "time": 9.9, "curve": "stepped" },
					{ "time": 10.0333, "curve": "stepped" },
					{ "time": 20.9667, "curve": "stepped" },
					{ "time": 21.3667 }
				],
				"translate": [
					{ "curve": "stepped" },
					{ "time": 1.3333, "curve": "stepped" },
					{ "time": 2.6667, "curve": "stepped" },
					{ "time": 4, "curve": "stepped" },
					{ "time": 5.3333, "curve": "stepped" },
					{ "time": 6.6667, "curve": "stepped" },
					{ "time": 7.2333, "curve": "stepped" },
					{ "time": 8.5667, "curve": "stepped" },
					{ "time": 9.9, "curve": "stepped" },
					{ "time": 10.0333, "curve": "stepped" },
					{ "time": 20.9667, "curve": "stepped" },
					{ "time": 21.3667 }
				],
				"scale": [
					{ "time": 20.9667, "curve": "stepped" },
					{ "time": 21.3667 }
				]
			},
			"Cape_R_Middle": {
				"rotate": [
					{ "curve": "stepped" },
					{ "time": 1.3333, "curve": "stepped" },
					{ "time": 2.6667, "curve": "stepped" },
					{ "time": 4, "curve": "stepped" },
					{ "time": 5.3333, "curve": "stepped" },
					{ "time": 6.6667, "curve": "stepped" },
					{ "time": 7.2333, "curve": "stepped" },
					{ "time": 8.5667, "curve": "stepped" },
					{ "time": 9.9, "curve": "stepped" },
					{ "time": 10.0333, "curve": "stepped" },
					{ "time": 20.9667, "curve": "stepped" },
					{ "time": 21.3667 }
				],
				"translate": [
					{
						"curve": [ 0.167, 0, 0.335, -16.42, 0.167, 0, 0.335, -27.37 ]
					},
					{
						"time": 0.5,
						"x": -16.42,
						"y": -27.37,
						"curve": [ 0.612, -16.42, 0.723, -19.94, 0.612, -27.37, 0.723, 4.86 ]
					},
					{
						"time": 0.8333,
						"x": -16.79,
						"y": 10.11,
						"curve": [ 0.956, -13.32, 1.078, -10.56, 0.956, 15.89, 1.078, -0.52 ]
					},
					{
						"time": 1.2,
						"x": -6.85,
						"y": -5.27,
						"curve": [ 1.245, -5.51, 1.289, 0, 1.245, -7, 1.289, 0 ]
					},
					{
						"time": 1.3333,
						"curve": [ 1.501, 0, 1.668, -16.42, 1.501, 0, 1.668, -27.37 ]
					},
					{
						"time": 1.8333,
						"x": -16.42,
						"y": -27.37,
						"curve": [ 1.945, -16.42, 2.056, -19.94, 1.945, -27.37, 2.056, 4.86 ]
					},
					{
						"time": 2.1667,
						"x": -16.79,
						"y": 10.11,
						"curve": [ 2.29, -13.32, 2.412, -10.56, 2.29, 15.89, 2.412, -0.52 ]
					},
					{
						"time": 2.5333,
						"x": -6.85,
						"y": -5.27,
						"curve": [ 2.578, -5.51, 2.622, 0, 2.578, -7, 2.622, 0 ]
					},
					{
						"time": 2.6667,
						"curve": [ 2.834, 0, 3.001, -16.42, 2.834, 0, 3.001, -27.37 ]
					},
					{
						"time": 3.1667,
						"x": -16.42,
						"y": -27.37,
						"curve": [ 3.278, -16.42, 3.39, -19.94, 3.278, -27.37, 3.39, 4.86 ]
					},
					{
						"time": 3.5,
						"x": -16.79,
						"y": 10.11,
						"curve": [ 3.623, -13.32, 3.745, -10.56, 3.623, 15.89, 3.745, -0.52 ]
					},
					{
						"time": 3.8667,
						"x": -6.85,
						"y": -5.27,
						"curve": [ 3.911, -5.51, 3.956, 0, 3.911, -7, 3.956, 0 ]
					},
					{
						"time": 4,
						"curve": [ 4.167, 0, 4.335, -16.42, 4.167, 0, 4.335, -27.37 ]
					},
					{
						"time": 4.5,
						"x": -16.42,
						"y": -27.37,
						"curve": [ 4.612, -16.42, 4.723, -19.94, 4.612, -27.37, 4.723, 4.86 ]
					},
					{
						"time": 4.8333,
						"x": -16.79,
						"y": 10.11,
						"curve": [ 4.956, -13.32, 5.078, -10.56, 4.956, 15.89, 5.078, -0.52 ]
					},
					{
						"time": 5.2,
						"x": -6.85,
						"y": -5.27,
						"curve": [ 5.245, -5.51, 5.289, 0, 5.245, -7, 5.289, 0 ]
					},
					{
						"time": 5.3333,
						"curve": [ 5.501, 0, 5.668, -16.42, 5.501, 0, 5.668, -27.37 ]
					},
					{
						"time": 5.8333,
						"x": -16.42,
						"y": -27.37,
						"curve": [ 5.945, -16.42, 6.056, -19.94, 5.945, -27.37, 6.056, 4.86 ]
					},
					{
						"time": 6.1667,
						"x": -16.79,
						"y": 10.11,
						"curve": [ 6.29, -13.32, 6.412, -10.56, 6.29, 15.89, 6.412, -0.52 ]
					},
					{
						"time": 6.5333,
						"x": -6.85,
						"y": -5.27,
						"curve": [ 6.578, -5.51, 6.622, 0, 6.578, -7, 6.622, 0 ]
					},
					{
						"time": 6.6667,
						"curve": [ 6.811, 0, 6.978, -10.56, 6.811, 0, 6.978, -0.52 ]
					},
					{
						"time": 7.1,
						"x": -6.85,
						"y": -5.27,
						"curve": [ 7.145, -5.51, 7.189, 0, 7.145, -7, 7.189, 0 ]
					},
					{
						"time": 7.2333,
						"curve": [ 7.401, 0, 7.568, -16.42, 7.401, 0, 7.568, -27.37 ]
					},
					{
						"time": 7.7333,
						"x": -16.42,
						"y": -27.37,
						"curve": [ 7.845, -16.42, 7.956, -19.94, 7.845, -27.37, 7.956, 4.86 ]
					},
					{
						"time": 8.0667,
						"x": -16.79,
						"y": 10.11,
						"curve": [ 8.19, -13.32, 8.312, -10.56, 8.19, 15.89, 8.312, -0.52 ]
					},
					{
						"time": 8.4333,
						"x": -6.85,
						"y": -5.27,
						"curve": [ 8.478, -5.51, 8.522, 0, 8.478, -7, 8.522, 0 ]
					},
					{
						"time": 8.5667,
						"curve": [ 8.734, 0, 8.901, -16.42, 8.734, 0, 8.901, -27.37 ]
					},
					{
						"time": 9.0667,
						"x": -16.42,
						"y": -27.37,
						"curve": [ 9.178, -16.42, 9.29, -19.94, 9.178, -27.37, 9.29, 4.86 ]
					},
					{
						"time": 9.4,
						"x": -16.79,
						"y": 10.11,
						"curve": [ 9.523, -13.32, 9.645, -10.56, 9.523, 15.89, 9.645, -0.52 ]
					},
					{
						"time": 9.7667,
						"x": -6.85,
						"y": -5.27,
						"curve": [ 9.811, -5.51, 9.866, 0, 9.811, -7, 9.866, 0 ]
					},
					{ "time": 9.9, "curve": "stepped" },
					{ "time": 10.0333, "curve": "stepped" },
					{ "time": 20.9667, "curve": "stepped" },
					{ "time": 21.3667 }
				],
				"scale": [
					{ "time": 20.9667, "curve": "stepped" },
					{ "time": 21.3667 }
				]
			},
			"Cape_R_Up": {
				"rotate": [
					{ "curve": "stepped" },
					{ "time": 1.3333, "curve": "stepped" },
					{ "time": 2.6667, "curve": "stepped" },
					{ "time": 4, "curve": "stepped" },
					{ "time": 5.3333, "curve": "stepped" },
					{ "time": 6.6667, "curve": "stepped" },
					{ "time": 7.2333, "curve": "stepped" },
					{ "time": 8.5667, "curve": "stepped" },
					{ "time": 9.9, "curve": "stepped" },
					{ "time": 10.0333, "curve": "stepped" },
					{ "time": 20.9667, "curve": "stepped" },
					{ "time": 21.3667 }
				],
				"translate": [
					{ "curve": "stepped" },
					{ "time": 1.3333, "curve": "stepped" },
					{ "time": 2.6667, "curve": "stepped" },
					{ "time": 4, "curve": "stepped" },
					{ "time": 5.3333, "curve": "stepped" },
					{ "time": 6.6667, "curve": "stepped" },
					{ "time": 7.2333, "curve": "stepped" },
					{ "time": 8.5667, "curve": "stepped" },
					{ "time": 9.9, "curve": "stepped" },
					{ "time": 10.0333, "curve": "stepped" },
					{ "time": 20.9667, "curve": "stepped" },
					{ "time": 21.3667 }
				],
				"scale": [
					{ "time": 20.9667, "curve": "stepped" },
					{ "time": 21.3667 }
				]
			},
			"Shoulder_R_ik": {
				"rotate": [
					{ "curve": "stepped" },
					{ "time": 1.3333, "curve": "stepped" },
					{ "time": 2.6667, "curve": "stepped" },
					{ "time": 4, "curve": "stepped" },
					{ "time": 5.3333, "curve": "stepped" },
					{ "time": 6.6667, "curve": "stepped" },
					{ "time": 7.2333, "curve": "stepped" },
					{ "time": 8.5667, "curve": "stepped" },
					{ "time": 9.9, "curve": "stepped" },
					{ "time": 10.0333, "curve": "stepped" },
					{ "time": 20.9667, "curve": "stepped" },
					{ "time": 21.3667 }
				],
				"translate": [
					{ "curve": "stepped" },
					{ "time": 1.3333, "curve": "stepped" },
					{ "time": 2.6667, "curve": "stepped" },
					{ "time": 4, "curve": "stepped" },
					{ "time": 5.3333, "curve": "stepped" },
					{ "time": 6.6667, "curve": "stepped" },
					{ "time": 7.2333, "curve": "stepped" },
					{ "time": 8.5667, "curve": "stepped" },
					{ "time": 9.9, "curve": "stepped" },
					{ "time": 10.0333, "curve": "stepped" },
					{ "time": 20.9667, "curve": "stepped" },
					{ "time": 21.3667 }
				],
				"scale": [
					{ "time": 20.9667, "curve": "stepped" },
					{ "time": 21.3667 }
				]
			},
			"RedHood_All": {
				"rotate": [
					{ "curve": "stepped" },
					{ "time": 2.6667, "curve": "stepped" },
					{ "time": 4, "curve": "stepped" },
					{ "time": 5.3333, "curve": "stepped" },
					{ "time": 6.6667, "curve": "stepped" },
					{ "time": 20.9667, "curve": "stepped" },
					{ "time": 21.3667 }
				],
				"translate": [
					{ "x": 2072.91, "y": 103.55 },
					{ "time": 6.8667, "x": -1970.14, "y": 103.55 },
					{ "time": 6.9333, "x": -1981.63, "y": -1506.77 },
					{ "time": 7.2, "x": 1795.12, "y": -1997.62 },
					{ "time": 7.3, "x": 2072.91, "y": 103.55 },
					{ "time": 7.5667, "x": 1814.19, "y": 103.55 },
					{ "time": 7.9, "x": 1567.59, "y": 103.55 },
					{ "time": 9.2, "x": 618.54, "y": 103.55 },
					{ "time": 9.5667, "x": 326.55, "y": 103.55 },
					{ "time": 20.9667, "x": 326.55, "y": 103.55, "curve": "stepped" },
					{ "time": 21.3667, "x": 326.55, "y": 103.55 }
				],
				"scale": [
					{ "curve": "stepped" },
					{ "time": 6.8667, "curve": "stepped" },
					{ "time": 20.9667, "curve": "stepped" },
					{ "time": 21.3667 }
				]
			},
			"basket_Down": {
				"rotate": [
					{ "time": 20.9667, "curve": "stepped" },
					{ "time": 21.3667 }
				],
				"translate": [
					{ "time": 10, "curve": "stepped" },
					{ "time": 20.9667, "curve": "stepped" },
					{ "time": 21.3667 }
				],
				"scale": [
					{ "time": 20.9667, "curve": "stepped" },
					{ "time": 21.3667 }
				]
			},
			"basket_All": {
				"rotate": [
					{ "time": 9.9 },
					{ "time": 10.1333, "value": -3.67 },
					{ "time": 10.6667, "value": 7.36 },
					{ "time": 10.8333, "curve": "stepped" },
					{ "time": 20.9667, "curve": "stepped" },
					{ "time": 21.3667 }
				],
				"translate": [
					{ "time": 9.9 },
					{ "time": 10.1333, "x": -2.65, "y": -41.28 },
					{ "time": 10.6667, "x": -20.06, "y": 55.99 },
					{ "time": 10.8333, "curve": "stepped" },
					{ "time": 20.9667, "curve": "stepped" },
					{ "time": 21.3667 }
				],
				"scale": [
					{ "curve": "stepped" },
					{ "time": 9.9 },
					{ "time": 10.3333, "y": 0.736 },
					{ "time": 10.5, "curve": "stepped" },
					{ "time": 20.9667, "curve": "stepped" },
					{ "time": 21.3667 }
				]
			},
			"All": {
				"translate": [
					{ "curve": "stepped" },
					{
						"time": 10.8333,
						"curve": [ 11.111, 0, 11.389, 0, 11.111, 0, 11.389, 0 ]
					},
					{
						"time": 11.6667,
						"curve": [ 12, 0, 12.371, -56.81, 12, 0, 12.333, 247.55 ]
					},
					{
						"time": 12.6667,
						"x": -124.71,
						"y": 249.42,
						"curve": [ 13.038, -210.11, 14.633, -751.81, 13.282, 252.89, 14.4, -117.09 ]
					},
					{
						"time": 14.9333,
						"x": -751.81,
						"y": -120.55,
						"curve": [ 15.1, -751.81, 15.381, -743.27, 15.115, -121.73, 15.392, -1054.53 ]
					},
					{
						"time": 15.7,
						"x": -729.5,
						"y": -1043.29,
						"curve": [ 16.424, -698.37, 17.352, -640.35, 16.343, -1020.8, 17.135, -38.35 ]
					},
					{
						"time": 17.6333,
						"x": -592.75,
						"y": 12.28,
						"curve": [ 17.802, -564.15, 17.944, -343.15, 17.807, 29.95, 17.944, 655.24 ]
					},
					{ "time": 18.1, "x": -343.15, "y": 655.24, "curve": "stepped" },
					{
						"time": 18.4667,
						"x": -343.15,
						"y": 655.24,
						"curve": [ 18.833, -343.15, 19.2, -450.42, 18.833, 655.24, 19.2, 287.31 ]
					},
					{ "time": 19.5667, "x": -450.42, "y": 287.31, "curve": "stepped" },
					{ "time": 21.3667, "x": -450.42, "y": 287.31 }
				],
				"scale": [
					{ "curve": "stepped" },
					{
						"time": 10.8333,
						"curve": [ 11.111, 1, 11.389, 1.783, 11.111, 1, 11.389, 1.783 ]
					},
					{ "time": 11.6667, "x": 1.783, "y": 1.783, "curve": "stepped" },
					{
						"time": 13.3333,
						"x": 1.783,
						"y": 1.783,
						"curve": [ 13.567, 1.783, 13.814, 2.45, 13.567, 1.783, 13.8, 2.513 ]
					},
					{
						"time": 14.0333,
						"x": 2.846,
						"y": 2.846,
						"curve": [ 14.288, 3.306, 14.633, 3.37, 14.303, 3.231, 14.633, 3.37 ]
					},
					{
						"time": 14.9333,
						"x": 3.37,
						"y": 3.37,
						"curve": [ 15.037, 3.37, 17.823, 2.772, 15.037, 3.37, 17.829, 2.785 ]
					},
					{
						"time": 18.7333,
						"x": 2.545,
						"y": 2.545,
						"curve": [ 19.065, 2.462, 19.233, 2.14, 19.065, 2.457, 19.233, 2.14 ]
					},
					{ "time": 19.5667, "x": 2.14, "y": 2.14, "curve": "stepped" },
					{ "time": 21.3667, "x": 2.14, "y": 2.14 }
				]
			},
			"Arm_R": {
				"rotate": [
					{
						"value": -23.53,
						"curve": [ 0.053, -28.8, 0.136, -31.84 ]
					},
					{
						"time": 0.2,
						"value": -31.86,
						"curve": [ 0.266, -31.89, 0.374, -29.77 ]
					},
					{
						"time": 0.5,
						"value": -21.4,
						"curve": [ 0.705, -7.84, 0.893, 15.79 ]
					},
					{
						"time": 1,
						"value": 13.34,
						"curve": [ 1.114, 10.73, 1.222, -12.53 ]
					},
					{
						"time": 1.3333,
						"value": -23.53,
						"curve": [ 1.387, -28.8, 1.469, -31.84 ]
					},
					{
						"time": 1.5333,
						"value": -31.86,
						"curve": [ 1.599, -31.89, 1.707, -29.77 ]
					},
					{
						"time": 1.8333,
						"value": -21.4,
						"curve": [ 2.038, -7.84, 2.226, 15.79 ]
					},
					{
						"time": 2.3333,
						"value": 13.34,
						"curve": [ 2.448, 10.73, 2.556, -12.53 ]
					},
					{
						"time": 2.6667,
						"value": -23.53,
						"curve": [ 2.72, -28.8, 2.803, -31.84 ]
					},
					{
						"time": 2.8667,
						"value": -31.86,
						"curve": [ 2.933, -31.89, 3.04, -29.77 ]
					},
					{
						"time": 3.1667,
						"value": -21.4,
						"curve": [ 3.371, -7.84, 3.559, 15.79 ]
					},
					{
						"time": 3.6667,
						"value": 13.34,
						"curve": [ 3.781, 10.73, 3.889, -12.53 ]
					},
					{
						"time": 4,
						"value": -23.53,
						"curve": [ 4.053, -28.8, 4.136, -31.84 ]
					},
					{
						"time": 4.2,
						"value": -31.86,
						"curve": [ 4.266, -31.89, 4.374, -29.77 ]
					},
					{
						"time": 4.5,
						"value": -21.4,
						"curve": [ 4.705, -7.84, 4.893, 15.79 ]
					},
					{
						"time": 5,
						"value": 13.34,
						"curve": [ 5.114, 10.73, 5.222, -12.53 ]
					},
					{
						"time": 5.3333,
						"value": -23.53,
						"curve": [ 5.387, -28.8, 5.469, -31.84 ]
					},
					{
						"time": 5.5333,
						"value": -31.86,
						"curve": [ 5.599, -31.89, 5.707, -29.77 ]
					},
					{
						"time": 5.8333,
						"value": -21.4,
						"curve": [ 6.038, -7.84, 6.226, 15.79 ]
					},
					{
						"time": 6.3333,
						"value": 13.34,
						"curve": [ 6.448, 10.73, 6.556, -12.53 ]
					},
					{
						"time": 6.6667,
						"value": -23.53,
						"curve": [ 6.778, -34.54, 7.122, -12.53 ]
					},
					{
						"time": 7.2333,
						"value": -23.53,
						"curve": [ 7.287, -28.8, 7.369, -31.84 ]
					},
					{
						"time": 7.4333,
						"value": -31.86,
						"curve": [ 7.499, -31.89, 7.607, -29.77 ]
					},
					{
						"time": 7.7333,
						"value": -21.4,
						"curve": [ 7.938, -7.84, 8.126, 15.79 ]
					},
					{
						"time": 8.2333,
						"value": 13.34,
						"curve": [ 8.348, 10.73, 8.456, -12.53 ]
					},
					{
						"time": 8.5667,
						"value": -23.53,
						"curve": [ 8.62, -28.8, 8.703, -31.86 ]
					},
					{
						"time": 8.7667,
						"value": -31.86,
						"curve": [ 8.978, -31.89, 9.374, 19.58 ]
					},
					{
						"time": 9.5,
						"value": 27.95,
						"curve": [ 9.705, 41.52, 9.855, -63.69 ]
					},
					{
						"time": 9.9,
						"value": -65.74,
						"curve": [ 9.953, -68.16, 10.132, -73.76 ]
					},
					{
						"time": 10.1667,
						"value": -70.78,
						"curve": [ 10.363, -54.74, 10.399, -14.89 ]
					},
					{
						"time": 10.5,
						"value": -6.53,
						"curve": [ 10.582, 0.27, 11.021, 23.37 ]
					},
					{
						"time": 11.2333,
						"value": 19.93,
						"curve": [ 11.413, 17.08, 11.599, 9.65 ]
					},
					{
						"time": 11.7667,
						"value": -6.53,
						"curve": [ 11.843, -13.88, 11.924, -33.62 ]
					},
					{
						"time": 12,
						"value": -34.45,
						"curve": [ 12.263, -37.3, 12.504, -34.7 ]
					},
					{
						"time": 12.7667,
						"value": -37.3,
						"curve": [ 12.902, -38.63, 13.699, -27.28 ]
					},
					{
						"time": 13.7667,
						"value": -27.28,
						"curve": [ 13.878, -27.28, 13.942, -17.39 ]
					},
					{
						"time": 14,
						"value": -27.28,
						"curve": [ 14.09, -42.58, 13.992, -78.23 ]
					},
					{
						"time": 14.3333,
						"value": -78.66,
						"curve": [ 14.796, -79.25, 14.6, -78.43 ]
					},
					{
						"time": 15,
						"value": -78.87,
						"curve": [ 15.156, -79.03, 15.264, -58.29 ]
					},
					{
						"time": 15.3333,
						"value": -48.86,
						"curve": [ 15.451, -32.96, 15.523, -19.79 ]
					},
					{ "time": 15.6667, "value": -40.73, "curve": "stepped" },
					{
						"time": 15.8,
						"value": -64.72,
						"curve": [ 15.906, -64.72, 16.619, -40.43 ]
					},
					{
						"time": 16.9,
						"value": -29.87,
						"curve": [ 17.032, -24.98, 17.135, -29.13 ]
					},
					{
						"time": 17.1667,
						"value": -29.13,
						"curve": [ 17.268, -29.13, 17.364, -40.74 ]
					},
					{
						"time": 17.4667,
						"value": -41.14,
						"curve": [ 18.578, -45.38, 19.689, -41.14 ]
					},
					{ "time": 20.8, "value": -41.14, "curve": "stepped" },
					{ "time": 21.2333, "value": -41.14 }
				],
				"translate": [
					{ "curve": "stepped" },
					{ "time": 1.3333, "curve": "stepped" },
					{ "time": 2.6667, "curve": "stepped" },
					{ "time": 4, "curve": "stepped" },
					{ "time": 5.3333, "curve": "stepped" },
					{ "time": 6.6667, "curve": "stepped" },
					{ "time": 7.2333, "curve": "stepped" },
					{ "time": 8.5667, "curve": "stepped" },
					{ "time": 9.9, "curve": "stepped" },
					{ "time": 20.9667, "curve": "stepped" },
					{ "time": 21.3667 }
				],
				"scale": [
					{ "time": 20.9667, "curve": "stepped" },
					{ "time": 21.3667 }
				]
			}
		},
		"transform": {
			"Hand_basket": [
				{ "time": 9.8667 },
				{ "time": 10.3667, "mixRotate": 0, "mixX": 0, "mixScaleX": 0, "mixShearY": 0 }
			]
		}
	}
}
}