%YAML 1.1
%TAG !u! tag:unity3d.com,2011:
--- !u!114 &11400000
MonoBehaviour:
  m_ObjectHideFlags: 0
  m_CorrespondingSourceObject: {fileID: 0}
  m_PrefabInstance: {fileID: 0}
  m_PrefabAsset: {fileID: 0}
  m_GameObject: {fileID: 0}
  m_Enabled: 1
  m_EditorHideFlags: 0
  m_Script: {fileID: 11500000, guid: f1ca9aaa2aac2a24a8149117a43ac5e6, type: 3}
  m_Name: 9F007067-0AAC-49E1-8392-302038B498D4
  m_EditorClassIdentifier: 
  objectName: sound_pc_dirt_run
  id: 3120952712
  guid: 9F007067-0AAC-49E1-8392-302038B498D4
