%YAML 1.1
%TAG !u! tag:unity3d.com,2011:
--- !u!114 &11400000
MonoBehaviour:
  m_ObjectHideFlags: 0
  m_CorrespondingSourceObject: {fileID: 0}
  m_PrefabInstance: {fileID: 0}
  m_PrefabAsset: {fileID: 0}
  m_GameObject: {fileID: 0}
  m_Enabled: 1
  m_EditorHideFlags: 0
  m_Script: {fileID: 11500000, guid: f1ca9aaa2aac2a24a8149117a43ac5e6, type: 3}
  m_Name: C024EC7F-3BB4-46A4-B8ED-41F47C4F8E13
  m_EditorClassIdentifier: 
  objectName: oneRound_play
  id: 2296566906
  guid: C024EC7F-3BB4-46A4-B8ED-41F47C4F8E13
