%YAML 1.1
%TAG !u! tag:unity3d.com,2011:
--- !u!114 &11400000
MonoBehaviour:
  m_ObjectHideFlags: 0
  m_CorrespondingSourceObject: {fileID: 0}
  m_PrefabInstance: {fileID: 0}
  m_PrefabAsset: {fileID: 0}
  m_GameObject: {fileID: 0}
  m_Enabled: 1
  m_EditorHideFlags: 0
  m_Script: {fileID: 11500000, guid: f1ca9aaa2aac2a24a8149117a43ac5e6, type: 3}
  m_Name: FF941D8A-7104-4263-9EBC-11A2FDFE372F
  m_EditorClassIdentifier: 
  objectName: Play_westernRed
  id: 1748999813
  guid: FF941D8A-7104-4263-9EBC-11A2FDFE372F
