%YAML 1.1
%TAG !u! tag:unity3d.com,2011:
--- !u!114 &11400000
MonoBehaviour:
  m_ObjectHideFlags: 0
  m_CorrespondingSourceObject: {fileID: 0}
  m_PrefabInstance: {fileID: 0}
  m_PrefabAsset: {fileID: 0}
  m_GameObject: {fileID: 0}
  m_Enabled: 1
  m_EditorHideFlags: 0
  m_Script: {fileID: 11500000, guid: 55f909e7ea217224ba04bfd27aed08a5, type: 3}
  m_Name: 15E97F66-764D-41B1-AEDD-3EF991ADC155
  m_EditorClassIdentifier: 
  objectName: New_SoundBank
  id: 4072029455
  guid: 15E97F66-764D-41B1-AEDD-3EF991ADC155
