%YAML 1.1
%TAG !u! tag:unity3d.com,2011:
--- !u!114 &11400000
MonoBehaviour:
  m_ObjectHideFlags: 0
  m_CorrespondingSourceObject: {fileID: 0}
  m_PrefabInstance: {fileID: 0}
  m_PrefabAsset: {fileID: 0}
  m_GameObject: {fileID: 0}
  m_Enabled: 1
  m_EditorHideFlags: 0
  m_Script: {fileID: 11500000, guid: f1b3b4b945939a54ea0b23d3396115fb, type: 3}
  m_Name: Ani_PC_SkeletonData
  m_EditorClassIdentifier: 
  atlasAssets:
  - {fileID: 11400000, guid: c6611ce4ee2865d4ba07d5e3722b9b69, type: 2}
  scale: 0.01
  skeletonJSON: {fileID: 4900000, guid: 85f78f4d7e16c624d8f031c804a6808f, type: 3}
  isUpgradingBlendModeMaterials: 0
  blendModeMaterials:
    requiresBlendModeMaterials: 1
    applyAdditiveMaterial: 0
    additiveMaterials: []
    multiplyMaterials:
    - pageName: Ani_PC.png
      material: {fileID: 2100000, guid: 564d95219356da34cb60c8ee2ca5d90c, type: 2}
    screenMaterials:
    - pageName: Ani_PC.png
      material: {fileID: 2100000, guid: 5b5d1e2f7d77f2041a3a1c53e32490b9, type: 2}
  skeletonDataModifiers: []
  fromAnimation: []
  toAnimation: []
  duration: []
  defaultMix: 0.2
  controller: {fileID: 0}
